<?xml version="1.0" encoding="UTF-8" standalone="no"?>
<svg
   width="48"
   height="48"
   viewBox="0 0 12.7 12.7"
   version="1.1"
   id="svg8"
   inkscape:version="1.2.2 (b0a8486541, 2022-12-01)"
   sodipodi:docname="folder-alt.svg"
   xmlns:inkscape="http://www.inkscape.org/namespaces/inkscape"
   xmlns:sodipodi="http://sodipodi.sourceforge.net/DTD/sodipodi-0.dtd"
   xmlns="http://www.w3.org/2000/svg"
   xmlns:svg="http://www.w3.org/2000/svg"
   xmlns:rdf="http://www.w3.org/1999/02/22-rdf-syntax-ns#"
   xmlns:cc="http://creativecommons.org/ns#"
   xmlns:dc="http://purl.org/dc/elements/1.1/">
  <defs
     id="defs2" />
  <sodipodi:namedview
     id="base"
     pagecolor="#ffffff"
     bordercolor="#666666"
     borderopacity="1.0"
     inkscape:pageopacity="0.0"
     inkscape:pageshadow="2"
     inkscape:zoom="5.6"
     inkscape:cx="23.392857"
     inkscape:cy="18.660714"
     inkscape:document-units="mm"
     inkscape:current-layer="layer1"
     inkscape:document-rotation="0"
     showgrid="true"
     units="px"
     inkscape:window-width="1280"
     inkscape:window-height="778"
     inkscape:window-x="0"
     inkscape:window-y="0"
     inkscape:window-maximized="1"
     inkscape:showpageshadow="2"
     inkscape:pagecheckerboard="0"
     inkscape:deskcolor="#d1d1d1">
    <inkscape:grid
       type="xygrid"
       id="grid835" />
  </sodipodi:namedview>
  <metadata
     id="metadata5">
    <rdf:RDF>
      <cc:Work
         rdf:about="">
        <dc:format>image/svg+xml</dc:format>
        <dc:type
           rdf:resource="http://purl.org/dc/dcmitype/StillImage" />
      </cc:Work>
    </rdf:RDF>
  </metadata>
  <g
     inkscape:label="Capa 1"
     inkscape:groupmode="layer"
     id="layer1">
    <path
       id="path843"
       style="fill:#d08770;stroke-width:0.2;stroke-linecap:round;stroke-linejoin:round;fill-opacity:1;stroke:#d08770;stroke-opacity:1;stroke-miterlimit:4;stroke-dasharray:none"
       d="M 3.7041668,2.9104166 H 7.6729167 L 11.90625,8.7312498 H 3.7041668 Z"
       sodipodi:nodetypes="ccccc" />
    <path
       id="path840"
       style="fill:#d08770;stroke-width:0.2;stroke-linecap:round;stroke-linejoin:round;fill-opacity:1;stroke:#d08770;stroke-opacity:1;stroke-miterlimit:4;stroke-dasharray:none"
       d="M 1.8520834,2.9104166 H 5.8208333 L 10.054167,8.7312498 H 1.8520834 Z"
       sodipodi:nodetypes="ccccc" />
    <path
       id="rect837"
       style="fill:#d08770;fill-opacity:1;stroke-width:0.75590552;stroke-linecap:round;stroke-linejoin:round;stroke:#d08770;stroke-opacity:1;stroke-miterlimit:4;stroke-dasharray:none"
       d="M 5 11 C 3.9999997 11 3 12 3 13 L 3 19 L 3 33 L 3 44 C 3 44.554 3.4459996 45 4 45 L 44 45 C 44.554 45 45 44.554 45 44 L 45 19 C 45 18.446 44.554 18 44 18 L 20.091797 18 L 15 11 L 5 11 z "
       transform="scale(0.26458333)" />
    <rect
       style="fill:#f7f7f7;fill-opacity:1;stroke-width:1;stroke-linecap:round;stroke-linejoin:round"
       id="rect855"
       width="3.7041667"
       height="0.79374999"
       x="7.4083333"
       y="5.8208332"
       rx="0.39687499"
       ry="0.39687499" />
  </g>
</svg>
