<?xml version="1.0" encoding="UTF-8" standalone="no"?>
<svg
   width="48"
   height="48"
   viewBox="0 0 48 48"
   version="1.1"
   xml:space="preserve"
   style="clip-rule:evenodd;fill-rule:evenodd;stroke-linejoin:round;stroke-miterlimit:2"
   id="svg7"
   sodipodi:docname="VeraCrypt.svg"
   inkscape:version="1.2.2 (b0a8486541, 2022-12-01)"
   xmlns:inkscape="http://www.inkscape.org/namespaces/inkscape"
   xmlns:sodipodi="http://sodipodi.sourceforge.net/DTD/sodipodi-0.dtd"
   xmlns="http://www.w3.org/2000/svg"
   xmlns:svg="http://www.w3.org/2000/svg"
   xmlns:rdf="http://www.w3.org/1999/02/22-rdf-syntax-ns#"
   xmlns:cc="http://creativecommons.org/ns#"
   xmlns:dc="http://purl.org/dc/elements/1.1/"><metadata
     id="metadata13"><rdf:RDF><cc:Work
         rdf:about=""><dc:format>image/svg+xml</dc:format><dc:type
           rdf:resource="http://purl.org/dc/dcmitype/StillImage" /></cc:Work></rdf:RDF></metadata><defs
     id="defs11" /><sodipodi:namedview
     pagecolor="#ffffff"
     bordercolor="#666666"
     borderopacity="1"
     objecttolerance="10"
     gridtolerance="10"
     guidetolerance="10"
     inkscape:pageopacity="0"
     inkscape:pageshadow="2"
     inkscape:window-width="1280"
     inkscape:window-height="755"
     id="namedview9"
     showgrid="false"
     inkscape:zoom="1.7236901"
     inkscape:cx="123.5721"
     inkscape:cy="150.83918"
     inkscape:window-x="0"
     inkscape:window-y="0"
     inkscape:window-maximized="1"
     inkscape:current-layer="svg7"
     inkscape:showpageshadow="2"
     inkscape:pagecheckerboard="0"
     inkscape:deskcolor="#d1d1d1" /><g
     id="Layer1"
     transform="matrix(0.05469589,0,0,0.05469589,-4.0042957,-4.0042957)"><circle
       cx="512"
       cy="512"
       r="402.224"
       style="fill:#787878"
       id="circle2" /><path
       d="m 222.694,373.484 c -0.336,0.005 -0.644,0.186 -0.811,0.477 -0.167,0.292 -0.168,0.65 -0.002,0.942 12.526,22.038 169.09,297.501 176.541,310.61 0.169,0.299 0.487,0.483 0.831,0.481 7.11,-0.044 80.13,-0.487 87.148,-0.53 0.336,-0.002 0.645,-0.181 0.814,-0.47 3.497,-5.994 39.534,-67.758 45.489,-77.965 0.172,-0.293 0.486,-0.473 0.826,-0.471 0.34,0.002 0.652,0.186 0.82,0.481 5.793,10.209 40.647,71.623 44.099,77.705 0.17,0.299 0.489,0.483 0.833,0.48 10.331,-0.08 160.951,-1.25 178.462,-1.386 0.34,-0.003 0.653,-0.187 0.82,-0.484 0.167,-0.296 0.162,-0.659 -0.012,-0.952 -6.02,-10.086 -42.113,-70.556 -45.64,-76.465 -0.172,-0.288 -0.483,-0.464 -0.818,-0.463 -6.93,0.023 -78.236,0.257 -85.152,0.28 -0.335,10e-4 -0.645,-0.173 -0.817,-0.46 -3.687,-6.128 -42.904,-71.31 -46.688,-77.599 -0.181,-0.3 -0.182,-0.675 -0.002,-0.976 3.619,-6.073 39.849,-66.857 43.355,-72.738 0.169,-0.284 0.474,-0.46 0.804,-0.463 7.215,-0.085 85.534,-1.004 92.859,-1.09 0.339,-0.004 0.651,-0.189 0.817,-0.485 3.403,-6.074 38.138,-68.071 43.811,-78.196 0.164,-0.292 0.161,-0.649 -0.006,-0.939 -0.168,-0.29 -0.476,-0.47 -0.811,-0.474 -17.214,-0.198 -167.855,-1.937 -178.128,-2.055 -0.341,-0.004 -0.658,0.175 -0.83,0.469 -6.476,11.048 -123.729,211.082 -134.721,229.835 -0.171,0.291 -0.484,0.47 -0.822,0.469 -0.338,-10e-4 -0.65,-0.182 -0.819,-0.475 C 434.15,581.89 319.767,383.871 313.379,372.814 c -0.171,-0.298 -0.49,-0.479 -0.834,-0.475 -7.012,0.09 -78.204,0.997 -89.851,1.145 z"
       style="fill:#ffffff;fill-opacity:0.869919"
       id="path4"
       inkscape:connector-curvature="0" /></g></svg>
