<?xml version="1.0" encoding="UTF-8" standalone="no"?>
<svg
   version="1.1"
   preserveAspectRatio="xMidYMid"
   viewBox="0 0 48 48"
   width="48"
   height="48"
   id="svg26"
   sodipodi:docname="automathemely.svg"
   inkscape:version="1.2.2 (b0a8486541, 2022-12-01)"
   xmlns:inkscape="http://www.inkscape.org/namespaces/inkscape"
   xmlns:sodipodi="http://sodipodi.sourceforge.net/DTD/sodipodi-0.dtd"
   xmlns:xlink="http://www.w3.org/1999/xlink"
   xmlns="http://www.w3.org/2000/svg"
   xmlns:svg="http://www.w3.org/2000/svg"
   xmlns:rdf="http://www.w3.org/1999/02/22-rdf-syntax-ns#"
   xmlns:cc="http://creativecommons.org/ns#"
   xmlns:dc="http://purl.org/dc/elements/1.1/">
  <metadata
     id="metadata30">
    <rdf:RDF>
      <cc:Work
         rdf:about="">
        <dc:format>image/svg+xml</dc:format>
        <dc:type
           rdf:resource="http://purl.org/dc/dcmitype/StillImage" />
      </cc:Work>
    </rdf:RDF>
  </metadata>
  <sodipodi:namedview
     pagecolor="#ffffff"
     bordercolor="#666666"
     borderopacity="1"
     objecttolerance="10"
     gridtolerance="10"
     guidetolerance="10"
     inkscape:pageopacity="0"
     inkscape:pageshadow="2"
     inkscape:window-width="1280"
     inkscape:window-height="755"
     id="namedview28"
     showgrid="false"
     inkscape:zoom="1.3854833"
     inkscape:cx="19.487784"
     inkscape:cy="199.20846"
     inkscape:window-x="0"
     inkscape:window-y="0"
     inkscape:window-maximized="1"
     inkscape:current-layer="svg26"
     inkscape:showpageshadow="2"
     inkscape:pagecheckerboard="0"
     inkscape:deskcolor="#d1d1d1" />
  <defs
     id="defs4">
    <path
       d="m 345.54,29.95 11.27,1.04 11.14,1.45 10.99,1.84 10.83,2.22 10.67,2.61 10.5,2.97 10.32,3.34 10.12,3.69 9.93,4.03 9.72,4.38 9.5,4.7 9.28,5.02 9.04,5.33 8.79,5.64 8.54,5.94 8.28,6.23 8.01,6.5 7.73,6.78 7.44,7.04 7.14,7.29 6.83,7.55 6.52,7.78 6.19,8.01 5.86,8.24 5.51,8.45 5.16,8.66 4.81,8.86 4.43,9.04 4.05,9.23 3.66,9.4 3.26,9.57 2.86,9.73 2.45,9.87 2.02,10.02 1.58,10.15 1.15,10.27 0.69,10.39 0.24,10.5 -0.13,6.55 -0.39,6.49 -0.64,6.42 -0.88,6.34 -1.12,6.25 -1.36,6.17 -1.59,6.08 -1.81,5.98 -2.04,5.87 -2.25,5.77 -2.46,5.65 -2.67,5.53 -2.87,5.42 -3.06,5.28 -3.26,5.15 -3.44,5 -3.62,4.87 -3.8,4.72 -3.96,4.56 -4.14,4.4 -4.29,4.24 -4.45,4.06 -4.6,3.9 -4.75,3.71 -4.88,3.52 -5.03,3.34 -5.15,3.14 -5.28,2.94 -5.4,2.74 -5.51,2.52 -5.63,2.31 -5.73,2.09 -5.83,1.86 -5.93,1.63 -6.01,1.39 -6.11,1.15 -6.18,0.9 -6.26,0.65 -6.33,0.4 -6.4,0.13 h -54.93 l -1.93,0.04 -1.9,0.12 -1.88,0.2 -1.86,0.27 -1.83,0.34 -1.81,0.42 -1.78,0.48 -1.75,0.56 -1.72,0.63 -1.69,0.69 -1.65,0.75 -1.62,0.82 -1.59,0.88 -1.54,0.94 -1.51,1 -1.47,1.06 -1.42,1.11 -1.38,1.17 -1.33,1.22 -1.29,1.27 -1.24,1.31 -1.19,1.37 -1.14,1.42 -1.08,1.46 -1.03,1.5 -0.98,1.54 -0.91,1.59 -0.86,1.62 -0.8,1.66 -0.74,1.7 -0.67,1.73 -0.61,1.76 -0.54,1.8 -0.48,1.82 -0.41,1.85 -0.33,1.88 -0.27,1.91 -0.19,1.93 -0.11,1.95 -0.04,1.97 0.01,0.9 0.02,0.91 0.05,0.89 0.06,0.9 0.07,0.89 0.1,0.88 0.1,0.88 0.13,0.88 0.14,0.87 0.16,0.86 0.17,0.86 0.19,0.86 0.2,0.84 0.22,0.85 0.23,0.83 0.24,0.83 0.26,0.83 0.28,0.82 0.29,0.81 0.3,0.8 0.31,0.8 0.33,0.78 0.34,0.79 0.36,0.77 0.36,0.77 0.38,0.75 0.39,0.75 0.41,0.74 0.41,0.74 0.43,0.72 0.44,0.71 0.44,0.71 0.46,0.7 0.47,0.68 0.49,0.68 0.49,0.67 0.5,0.65 0.51,0.65 0.52,0.64 0.53,0.62 0.56,0.65 0.54,0.66 0.53,0.67 0.52,0.68 0.51,0.68 0.5,0.7 0.49,0.7 0.47,0.71 0.47,0.73 0.45,0.72 0.44,0.74 0.42,0.75 0.42,0.75 0.4,0.77 0.38,0.77 0.38,0.77 0.36,0.79 0.35,0.79 0.33,0.8 0.33,0.81 0.3,0.81 0.3,0.83 0.27,0.83 0.27,0.83 0.25,0.84 0.23,0.85 0.22,0.86 0.21,0.86 0.18,0.87 0.18,0.87 0.16,0.88 0.14,0.89 0.12,0.89 0.11,0.9 0.1,0.9 0.07,0.91 0.06,0.91 0.05,0.92 0.02,0.92 0.01,0.93 -0.04,1.97 -0.11,1.95 -0.19,1.93 -0.27,1.91 -0.33,1.87 -0.41,1.86 -0.48,1.82 -0.54,1.8 -0.61,1.76 -0.67,1.73 -0.74,1.7 -0.8,1.66 -0.86,1.62 -0.92,1.59 -0.97,1.54 -1.03,1.5 -1.09,1.46 -1.13,1.42 -1.19,1.36 -1.24,1.32 -1.29,1.27 -1.33,1.22 -1.38,1.17 -1.43,1.11 -1.46,1.06 -1.51,1 -1.54,0.94 -1.59,0.88 -1.62,0.82 -1.65,0.75 -1.69,0.69 -1.72,0.63 -1.75,0.56 -1.78,0.48 -1.81,0.42 -1.83,0.34 -1.86,0.27 -1.88,0.2 -1.91,0.12 -1.92,0.04 -11.52,-0.24 -11.39,-0.71 -11.27,-1.18 -11.14,-1.62 -10.99,-2.07 -10.83,-2.51 -10.67,-2.93 -10.5,-3.35 -10.32,-3.75 -10.12,-4.15 -9.93,-4.55 -9.72,-4.92 -9.5,-5.29 -9.28,-5.65 -9.04,-6 -8.79,-6.35 -8.54,-6.68 -8.28,-7.01 -8.01,-7.32 -7.73,-7.62 -7.44,-7.92 -7.14,-8.21 -6.83,-8.49 -6.52,-8.76 -6.19,-9.01 -5.86,-9.27 -5.51,-9.51 -5.16,-9.74 -4.8,-9.96 -4.43,-10.18 -4.06,-10.38 -3.66,-10.57 -3.26,-10.76 -2.86,-10.94 -2.45,-11.11 -2.02,-11.26 -1.58,-11.42 -1.15,-11.55 -0.69,-11.68 -0.23,-11.81 0.23,-11.8 0.69,-11.69 1.15,-11.55 1.58,-11.41 2.02,-11.27 2.45,-11.1 2.86,-10.94 3.26,-10.76 3.66,-10.58 4.06,-10.38 4.43,-10.18 4.8,-9.96 5.16,-9.74 5.51,-9.51 5.86,-9.26 6.19,-9.02 6.52,-8.76 6.83,-8.48 7.14,-8.21 7.44,-7.92 7.73,-7.63 8.01,-7.32 8.28,-7 8.54,-6.68 8.79,-6.35 9.04,-6.01 9.28,-5.65 9.5,-5.29 9.72,-4.92 9.93,-4.54 10.12,-4.15 10.32,-3.76 10.5,-3.35 10.67,-2.93 10.83,-2.5 10.99,-2.07 11.14,-1.63 11.27,-1.17 11.39,-0.71 11.52,-0.24 11.52,0.21 z M 229.19,406.49 h 42.72 l 15.49,-45.37 h 70.13 l 15.5,45.37 h 42.72 l -70.8,-204.86 h -44.94 z m -81.14,-186.27 -1.88,0.19 -1.86,0.27 -1.83,0.35 -1.81,0.41 -1.78,0.49 -1.75,0.56 -1.72,0.62 -1.69,0.69 -1.65,0.76 -1.62,0.82 -1.59,0.88 -1.54,0.94 -1.51,1 -1.47,1.05 -1.42,1.12 -1.38,1.16 -1.33,1.22 -1.29,1.27 -1.24,1.32 -1.19,1.37 -1.13,1.41 -1.09,1.46 -1.03,1.5 -0.97,1.55 -0.92,1.58 -0.86,1.62 -0.8,1.67 -0.74,1.69 -0.67,1.73 -0.61,1.77 -0.54,1.79 -0.48,1.83 -0.41,1.85 -0.33,1.88 -0.27,1.9 -0.19,1.93 -0.11,1.95 -0.04,1.97 0.04,1.98 0.11,1.95 0.19,1.93 0.27,1.9 0.33,1.88 0.41,1.85 0.48,1.83 0.54,1.79 0.61,1.77 0.67,1.73 0.74,1.69 0.8,1.67 0.86,1.62 0.92,1.58 0.97,1.55 1.03,1.5 1.09,1.46 1.13,1.41 1.19,1.37 1.24,1.32 1.29,1.27 1.33,1.22 1.38,1.16 1.42,1.12 1.47,1.05 1.51,1 1.54,0.94 1.59,0.88 1.62,0.82 1.65,0.76 1.69,0.69 1.72,0.62 1.75,0.56 1.78,0.49 1.81,0.41 1.83,0.35 1.86,0.27 1.88,0.19 1.91,0.12 1.92,0.04 1.92,-0.04 1.91,-0.12 1.88,-0.19 1.85,-0.27 1.84,-0.35 1.81,-0.41 1.78,-0.49 1.75,-0.56 1.72,-0.62 1.69,-0.69 1.65,-0.76 1.62,-0.82 1.59,-0.88 1.54,-0.94 1.51,-1 1.46,-1.05 1.43,-1.12 1.38,-1.16 1.33,-1.22 1.29,-1.27 1.24,-1.32 1.18,-1.37 1.14,-1.41 1.09,-1.46 1.03,-1.5 0.97,-1.55 0.92,-1.58 0.86,-1.62 0.8,-1.67 0.74,-1.69 0.67,-1.73 0.61,-1.77 0.54,-1.79 0.48,-1.83 0.4,-1.85 0.34,-1.88 0.26,-1.9 0.19,-1.93 0.12,-1.95 0.04,-1.98 -0.04,-1.97 -0.12,-1.95 -0.19,-1.93 -0.26,-1.9 -0.34,-1.88 -0.4,-1.85 -0.48,-1.83 -0.54,-1.79 -0.61,-1.77 -0.67,-1.73 -0.74,-1.69 -0.8,-1.67 -0.86,-1.62 -0.92,-1.58 -0.97,-1.55 -1.03,-1.5 -1.09,-1.46 -1.14,-1.41 -1.18,-1.37 -1.24,-1.32 -1.29,-1.27 -1.33,-1.22 -1.38,-1.16 -1.43,-1.12 -1.46,-1.05 -1.51,-1 -1.54,-0.94 -1.59,-0.88 -1.62,-0.82 -1.65,-0.76 -1.69,-0.69 -1.72,-0.62 -1.75,-0.56 -1.78,-0.49 -1.81,-0.41 -1.84,-0.35 -1.85,-0.27 -1.88,-0.19 -1.91,-0.12 -1.92,-0.04 -1.92,0.04 z m 341.51,0 -1.88,0.19 -1.86,0.27 -1.83,0.35 -1.81,0.41 -1.78,0.49 -1.75,0.56 -1.72,0.62 -1.69,0.69 -1.66,0.76 -1.62,0.82 -1.58,0.88 -1.55,0.94 -1.5,1 -1.47,1.05 -1.42,1.12 -1.38,1.16 -1.33,1.22 -1.29,1.27 -1.24,1.32 -1.19,1.37 -1.14,1.41 -1.08,1.46 -1.03,1.5 -0.98,1.55 -0.91,1.58 -0.86,1.62 -0.8,1.67 -0.74,1.69 -0.67,1.73 -0.61,1.77 -0.55,1.79 -0.47,1.83 -0.41,1.85 -0.33,1.88 -0.27,1.9 -0.19,1.93 -0.11,1.95 -0.04,1.97 0.04,1.98 0.11,1.95 0.19,1.93 0.27,1.9 0.33,1.88 0.41,1.85 0.47,1.83 0.55,1.79 0.61,1.77 0.67,1.73 0.74,1.69 0.8,1.67 0.86,1.62 0.91,1.58 0.98,1.55 1.03,1.5 1.08,1.46 1.14,1.41 1.19,1.37 1.24,1.32 1.29,1.27 1.33,1.22 1.38,1.16 1.42,1.12 1.47,1.05 1.5,1 1.55,0.94 1.58,0.88 1.62,0.82 1.66,0.76 1.69,0.69 1.72,0.62 1.75,0.56 1.78,0.49 1.81,0.41 1.83,0.35 1.86,0.27 1.88,0.19 1.9,0.12 1.93,0.04 1.92,-0.04 1.9,-0.12 1.88,-0.19 1.86,-0.27 1.84,-0.35 1.8,-0.41 1.78,-0.49 1.76,-0.56 1.72,-0.62 1.68,-0.69 1.66,-0.76 1.62,-0.82 1.58,-0.88 1.55,-0.94 1.51,-1 1.46,-1.05 1.42,-1.12 1.38,-1.16 1.34,-1.22 1.28,-1.27 1.24,-1.32 1.19,-1.37 1.14,-1.41 1.09,-1.46 1.03,-1.5 0.97,-1.55 0.92,-1.58 0.86,-1.62 0.8,-1.67 0.73,-1.69 0.68,-1.73 0.61,-1.77 0.54,-1.79 0.48,-1.83 0.4,-1.85 0.34,-1.88 0.26,-1.9 0.19,-1.93 0.12,-1.95 0.04,-1.98 -0.04,-1.97 -0.12,-1.95 -0.19,-1.93 -0.26,-1.9 -0.34,-1.88 -0.4,-1.85 -0.48,-1.83 -0.54,-1.79 -0.61,-1.77 -0.68,-1.73 -0.73,-1.69 -0.8,-1.67 -0.86,-1.62 -0.92,-1.58 -0.97,-1.55 -1.03,-1.5 -1.09,-1.46 -1.14,-1.41 -1.19,-1.37 -1.24,-1.32 -1.28,-1.27 -1.34,-1.22 -1.38,-1.16 -1.42,-1.12 -1.46,-1.05 -1.51,-1 -1.55,-0.94 -1.58,-0.88 -1.62,-0.82 -1.66,-0.76 -1.68,-0.69 -1.72,-0.62 -1.76,-0.56 -1.78,-0.49 -1.8,-0.41 -1.84,-0.35 -1.86,-0.27 -1.88,-0.19 -1.9,-0.12 -1.92,-0.04 -1.93,0.04 z m -93.14,-127.3 -1.88,0.19 -1.86,0.27 -1.83,0.35 -1.81,0.41 -1.78,0.49 -1.75,0.56 -1.72,0.62 -1.69,0.69 -1.66,0.76 -1.62,0.82 -1.58,0.88 -1.55,0.94 -1.5,1 -1.47,1.05 -1.42,1.12 -1.38,1.16 -1.33,1.22 -1.29,1.27 -1.24,1.32 -1.19,1.37 -1.14,1.41 -1.08,1.46 -1.03,1.5 -0.98,1.55 -0.92,1.58 -0.85,1.62 -0.8,1.67 -0.74,1.69 -0.67,1.73 -0.61,1.77 -0.55,1.79 -0.47,1.83 -0.41,1.85 -0.34,1.88 -0.26,1.9 -0.19,1.93 -0.11,1.95 -0.04,1.97 0.04,1.98 0.11,1.95 0.19,1.93 0.26,1.9 0.34,1.88 0.41,1.85 0.47,1.83 0.55,1.79 0.61,1.77 0.67,1.73 0.74,1.69 0.8,1.67 0.85,1.62 0.92,1.58 0.98,1.55 1.03,1.5 1.08,1.46 1.14,1.41 1.19,1.37 1.24,1.32 1.29,1.27 1.33,1.22 1.38,1.16 1.42,1.12 1.47,1.05 1.5,1 1.55,0.94 1.58,0.88 1.62,0.82 1.66,0.76 1.69,0.69 1.72,0.62 1.75,0.56 1.78,0.49 1.81,0.41 1.83,0.35 1.86,0.27 1.88,0.19 1.9,0.12 1.93,0.04 1.92,-0.04 1.9,-0.12 1.88,-0.19 1.86,-0.27 1.84,-0.35 1.8,-0.41 1.78,-0.49 1.75,-0.56 1.72,-0.62 1.69,-0.69 1.66,-0.76 1.62,-0.82 1.58,-0.88 1.55,-0.94 1.5,-1 1.47,-1.05 1.42,-1.12 1.38,-1.16 1.34,-1.22 1.28,-1.27 1.24,-1.32 1.19,-1.37 1.14,-1.41 1.08,-1.46 1.03,-1.5 0.98,-1.55 0.92,-1.58 0.86,-1.62 0.8,-1.67 0.73,-1.69 0.68,-1.73 0.61,-1.77 0.54,-1.79 0.47,-1.83 0.41,-1.85 0.34,-1.88 0.26,-1.9 0.19,-1.93 0.12,-1.95 0.04,-1.98 -0.04,-1.97 -0.12,-1.95 -0.19,-1.93 -0.26,-1.9 -0.34,-1.88 -0.41,-1.85 -0.47,-1.83 -0.54,-1.79 -0.61,-1.77 -0.68,-1.73 -0.73,-1.69 -0.8,-1.67 -0.86,-1.62 -0.92,-1.58 -0.98,-1.55 -1.03,-1.5 -1.08,-1.46 -1.14,-1.41 -1.19,-1.37 -1.24,-1.32 -1.28,-1.27 -1.34,-1.22 -1.38,-1.16 -1.42,-1.12 -1.47,-1.05 -1.5,-1 -1.55,-0.94 -1.58,-0.88 -1.62,-0.82 -1.66,-0.76 -1.69,-0.69 -1.72,-0.62 -1.75,-0.56 -1.78,-0.49 -1.8,-0.41 -1.84,-0.35 -1.86,-0.27 -1.88,-0.19 -1.9,-0.12 -1.92,-0.04 -1.93,0.04 z m -155.23,0 -1.88,0.19 -1.86,0.27 -1.83,0.35 -1.81,0.41 -1.78,0.49 -1.75,0.56 -1.72,0.62 -1.69,0.69 -1.66,0.76 -1.62,0.82 -1.58,0.88 -1.55,0.94 -1.5,1 -1.47,1.05 -1.42,1.12 -1.38,1.16 -1.34,1.22 -1.28,1.27 -1.24,1.32 -1.19,1.37 -1.14,1.41 -1.08,1.46 -1.03,1.5 -0.98,1.55 -0.92,1.58 -0.86,1.62 -0.79,1.67 -0.74,1.69 -0.68,1.73 -0.6,1.77 -0.55,1.79 -0.47,1.83 -0.41,1.85 -0.34,1.88 -0.26,1.9 -0.19,1.93 -0.12,1.95 -0.03,1.97 0.03,1.98 0.12,1.95 0.19,1.93 0.26,1.9 0.34,1.88 0.41,1.85 0.47,1.83 0.55,1.79 0.6,1.77 0.68,1.73 0.74,1.69 0.79,1.67 0.86,1.62 0.92,1.58 0.98,1.55 1.03,1.5 1.08,1.46 1.14,1.41 1.19,1.37 1.24,1.32 1.28,1.27 1.34,1.22 1.38,1.16 1.42,1.12 1.47,1.05 1.5,1 1.55,0.94 1.58,0.88 1.62,0.82 1.66,0.76 1.69,0.69 1.72,0.62 1.75,0.56 1.78,0.49 1.81,0.41 1.83,0.35 1.86,0.27 1.88,0.19 1.9,0.12 1.93,0.04 1.92,-0.04 1.9,-0.12 1.88,-0.19 1.86,-0.27 1.83,-0.35 1.81,-0.41 1.78,-0.49 1.75,-0.56 1.72,-0.62 1.69,-0.69 1.66,-0.76 1.62,-0.82 1.58,-0.88 1.55,-0.94 1.5,-1 1.47,-1.05 1.42,-1.12 1.38,-1.16 1.34,-1.22 1.28,-1.27 1.24,-1.32 1.19,-1.37 1.14,-1.41 1.08,-1.46 1.03,-1.5 0.98,-1.55 0.92,-1.58 0.86,-1.62 0.79,-1.67 0.74,-1.69 0.68,-1.73 0.6,-1.77 0.55,-1.79 0.47,-1.83 0.41,-1.85 0.34,-1.88 0.26,-1.9 0.19,-1.93 0.12,-1.95 0.03,-1.98 -0.03,-1.97 -0.12,-1.95 -0.19,-1.93 -0.26,-1.9 -0.34,-1.88 -0.41,-1.85 -0.47,-1.83 -0.55,-1.79 -0.6,-1.77 -0.68,-1.73 -0.74,-1.69 -0.79,-1.67 -0.86,-1.62 -0.92,-1.58 -0.98,-1.55 -1.03,-1.5 -1.08,-1.46 -1.14,-1.41 -1.19,-1.37 -1.24,-1.32 -1.28,-1.27 -1.34,-1.22 -1.38,-1.16 -1.42,-1.12 -1.47,-1.05 -1.5,-1 -1.55,-0.94 -1.58,-0.88 -1.62,-0.82 -1.66,-0.76 -1.69,-0.69 -1.72,-0.62 -1.75,-0.56 -1.78,-0.49 -1.81,-0.41 -1.83,-0.35 -1.86,-0.27 -1.88,-0.19 -1.9,-0.12 -1.92,-0.04 -1.93,0.04 z"
       id="eFnpqIJNn" />
    <path
       d="m 322.97,134.05 h 0.17 0.17 l 0.17,0.01 h 0.17 0.17 l 0.17,0.01 h 0.17 l 0.17,0.01 h 0.17 l 0.17,0.01 h 0.16 l 0.17,0.01 h 0.17 l 0.17,0.01 h 0.17 l 0.17,0.01 0.17,0.01 h 0.17 l 0.17,0.01 0.17,0.01 h 0.17 l 0.17,0.01 0.17,0.01 0.17,0.01 h 0.17 l 0.17,0.01 0.17,0.01 0.17,0.01 0.17,0.01 h 0.17 l 0.17,0.01 0.17,0.01 0.17,0.01 0.17,0.01 0.17,0.01 0.17,0.01 0.16,0.01 0.17,0.01 2.35,0.09 2.34,0.13 2.34,0.16 2.33,0.19 2.34,0.22 2.33,0.25 2.32,0.28 2.33,0.32 2.31,0.34 2.32,0.37 2.31,0.41 2.3,0.43 2.3,0.47 2.29,0.5 2.28,0.53 2.28,0.56 2.27,0.59 2.26,0.62 2.25,0.66 2.24,0.68 2.24,0.72 2.22,0.75 2.22,0.78 2.2,0.81 2.19,0.84 2.19,0.88 2.17,0.91 2.16,0.94 2.14,0.97 2.14,1 2.12,1.04 2.1,1.07 2.1,1.1 2.07,1.13 2.07,1.17 2.05,1.19 2.03,1.23 2.02,1.27 2,1.29 1.98,1.33 1.14,0.73 1.13,0.74 1.13,0.74 1.12,0.76 1.11,0.77 1.1,0.78 1.1,0.78 1.09,0.8 1.08,0.8 1.08,0.81 1.07,0.83 1.06,0.83 1.05,0.84 1.05,0.84 1.03,0.86 1.04,0.87 1.02,0.87 1.02,0.88 1,0.89 1.01,0.9 0.99,0.91 0.99,0.91 0.98,0.92 0.97,0.93 0.97,0.94 0.95,0.95 0.95,0.95 0.95,0.96 0.93,0.97 0.93,0.97 0.92,0.99 0.91,0.98 0.91,1 0.9,1 0.89,1.01 0.88,1.02 0.88,1.03 0.87,1.03 0.86,1.03 0.85,1.05 0.22,0.25 v 0 l 0.01,0.01 0.01,0.02 0.02,0.04 0.02,0.03 0.01,0.01 0.01,0.02 0.01,0.01 0.01,0.02 0.01,0.01 0.01,0.01 0.01,0.01 0.23,0.29 0.23,0.28 0.23,0.29 0.23,0.29 0.22,0.28 0.23,0.29 0.23,0.29 0.22,0.29 0.23,0.29 0.22,0.29 0.23,0.29 0.22,0.29 0.23,0.29 0.22,0.29 0.22,0.29 0.22,0.3 0.22,0.29 0.22,0.29 0.22,0.3 0.22,0.29 0.22,0.3 0.22,0.29 0.22,0.3 0.21,0.29 0.22,0.3 0.21,0.3 0.22,0.29 0.21,0.3 0.22,0.3 0.21,0.3 0.21,0.3 0.22,0.3 0.21,0.3 0.21,0.3 0.21,0.3 0.21,0.3 0.21,0.31 0.21,0.3 0.2,0.3 0.21,0.31 0.06,0.08 0.05,0.08 0.06,0.08 0.06,0.08 0.06,0.08 0.05,0.08 0.06,0.08 0.06,0.08 0.06,0.08 0.05,0.08 0.06,0.08 0.06,0.08 0.05,0.08 0.06,0.08 0.06,0.08 0.06,0.08 0.05,0.08 0.06,0.08 0.06,0.08 0.05,0.08 0.06,0.08 0.06,0.08 0.05,0.08 0.06,0.08 0.06,0.08 0.05,0.08 0.06,0.08 0.06,0.08 0.05,0.08 0.06,0.08 0.05,0.08 0.06,0.08 0.06,0.08 0.05,0.08 0.06,0.08 0.06,0.09 0.05,0.08 0.06,0.08 0.05,0.08 0.06,0.08 1.33,2.05 1.3,2.07 1.28,2.09 1.25,2.11 1.21,2.11 1.19,2.14 1.16,2.15 1.13,2.16 1.1,2.18 1.08,2.19 1.04,2.21 1.01,2.22 0.98,2.23 0.96,2.24 0.92,2.26 0.89,2.27 0.87,2.28 0.83,2.29 0.8,2.31 0.78,2.31 0.74,2.33 0.71,2.33 0.68,2.34 0.65,2.36 0.62,2.36 0.59,2.37 0.56,2.39 0.52,2.38 0.5,2.4 0.46,2.41 0.43,2.41 0.4,2.42 0.37,2.42 0.34,2.43 0.3,2.44 0.27,2.44 0.24,2.45 0.21,2.46 0.18,2.46 0.14,2.46 0.01,0.18 0.01,0.18 0.01,0.18 0.01,0.18 0.02,0.36 0.01,0.18 0.02,0.18 0.01,0.18 0.01,0.18 0.01,0.18 0.01,0.18 0.01,0.18 0.01,0.18 0.01,0.18 0.01,0.18 0.01,0.18 0.01,0.18 0.01,0.18 0.01,0.18 0.01,0.18 0.01,0.18 v 0.18 l 0.01,0.18 0.01,0.17 0.01,0.18 0.01,0.18 0.01,0.18 v 0.18 l 0.01,0.18 0.01,0.18 v 0.18 l 0.01,0.18 0.01,0.18 v 0.19 l 0.01,0.18 v 0.18 l 0.01,0.18 v 0.18 l 0.01,0.18 v 0.06 0.07 l 0.01,0.06 v 0.07 l 0.01,0.06 v 0.07 0.06 l 0.01,0.07 v 0.06 0.07 l 0.01,0.06 v 0.07 l 0.01,0.06 v 0.07 0.07 l 0.01,0.06 v 0.07 0.06 0.07 l 0.01,0.06 v 0.07 0.06 l 0.01,0.07 v 0.06 0.07 l 0.01,0.06 v 0.07 0.06 l 0.01,0.07 v 0.07 0.06 0.07 l 0.01,0.13 v 0.06 l 0.01,0.07 v 0.13 l 0.01,0.13 -0.01,0.15 v 0.16 0.15 l -0.01,0.16 v 0.15 0.15 l -0.01,0.16 v 0.15 0.16 l -0.01,0.15 v 0.15 l -0.01,0.16 v 0.15 l -0.01,0.16 v 0.15 l -0.01,0.15 v 0.16 l -0.01,0.15 v 0.16 l -0.01,0.15 v 0.15 l -0.01,0.16 v 0.15 l -0.01,0.16 -0.01,0.15 v 0.15 l -0.01,0.16 v 0.15 l -0.01,0.16 -0.01,0.15 v 0.15 l -0.01,0.16 -0.01,0.15 v 0.15 l -0.01,0.16 -0.01,0.15 -0.01,0.16 v 0.15 l -0.01,0.15 -0.01,0.16 v 0.14 l -0.01,0.15 v 0.14 0.15 l -0.01,0.15 v 0.14 l -0.01,0.29 v 0.15 l -0.01,0.15 v 0.14 l -0.01,0.15 v 0.14 0.15 l -0.01,0.14 v 0.15 l -0.01,0.14 v 0.15 l -0.01,0.15 v 0.14 l -0.01,0.15 v 0.14 l -0.01,0.15 v 0.14 l -0.01,0.15 v 0.15 l -0.01,0.14 v 0.15 l -0.01,0.14 -0.01,0.15 v 0.14 l -0.01,0.15 -0.01,0.14 v 0.15 l -0.01,0.15 -0.01,0.14 -0.01,0.15 -0.01,0.14 -0.01,0.15 v 0.14 l -0.01,0.07 -0.01,0.08 v 0.07 l -0.01,0.07 -0.01,0.07 v 0.07 l -0.01,0.07 v 0.07 l -0.01,0.07 -0.01,0.07 v 0.07 l -0.01,0.07 -0.01,0.08 v 0.07 l -0.01,0.07 -0.01,0.07 v 0.07 l -0.01,0.07 -0.01,0.07 -0.01,0.14 -0.01,0.07 v 0.07 l -0.02,0.15 -0.02,0.21 v 0.07 l -0.02,0.14 v 0.07 l -0.02,0.14 v 0.07 l -0.01,0.08 -0.01,0.07 v 0.07 l -0.01,0.07 -0.01,0.07 -0.02,0.36 -0.03,0.35 -0.03,0.36 -0.03,0.36 -0.03,0.35 -0.03,0.36 -0.03,0.36 -0.04,0.35 -0.03,0.36 -0.03,0.36 -0.04,0.35 -0.03,0.36 -0.04,0.35 -0.04,0.36 -0.03,0.36 -0.04,0.35 -0.04,0.36 -0.04,0.35 -0.04,0.36 -0.04,0.35 -0.04,0.36 -0.05,0.36 -0.04,0.35 -0.04,0.36 -0.05,0.35 -0.04,0.36 -0.05,0.35 -0.05,0.36 -0.04,0.35 -0.05,0.36 -0.05,0.35 -0.05,0.36 -0.05,0.35 -0.05,0.36 -0.06,0.35 -0.05,0.35 -0.05,0.36 -0.06,0.35 -0.05,0.36 -0.06,0.35 -0.02,0.11 -0.02,0.12 -0.02,0.11 -0.02,0.12 -0.02,0.11 -0.02,0.11 -0.01,0.12 -0.02,0.11 -0.02,0.12 -0.02,0.11 -0.02,0.11 -0.02,0.12 -0.02,0.11 -0.02,0.11 -0.02,0.12 -0.02,0.11 -0.02,0.11 -0.02,0.12 -0.03,0.11 -0.02,0.12 -0.02,0.11 -0.02,0.11 -0.02,0.12 -0.02,0.11 -0.02,0.11 -0.02,0.12 -0.02,0.11 -0.02,0.11 -0.02,0.12 -0.02,0.11 -0.03,0.11 -0.02,0.12 -0.02,0.11 -0.02,0.11 -0.02,0.12 -0.02,0.11 -0.02,0.11 -0.03,0.12 -0.02,0.11 -0.02,0.11 -0.05,0.26 -0.05,0.26 -0.05,0.26 -0.05,0.26 -0.05,0.26 -0.05,0.26 -0.05,0.26 -0.05,0.26 -0.06,0.26 -0.05,0.26 -0.05,0.26 -0.05,0.26 -0.06,0.26 -0.05,0.26 -0.06,0.26 -0.05,0.25 -0.06,0.26 -0.05,0.26 -0.06,0.26 -0.05,0.26 -0.06,0.26 -0.06,0.26 -0.05,0.25 -0.06,0.26 -0.06,0.26 -0.06,0.26 -0.06,0.26 -0.06,0.26 -0.06,0.25 -0.06,0.26 -0.06,0.26 -0.06,0.26 -0.06,0.26 -0.07,0.25 -0.06,0.26 -0.06,0.26 -0.07,0.26 -0.06,0.25 -0.06,0.26 -0.07,0.26 -0.06,0.24 -0.06,0.23 -0.06,0.24 -0.06,0.24 -0.06,0.24 -0.06,0.24 -0.06,0.23 -0.06,0.24 -0.06,0.24 -0.06,0.24 -0.06,0.23 -0.07,0.24 -0.06,0.24 -0.06,0.23 -0.06,0.24 -0.07,0.24 -0.06,0.24 -0.06,0.23 -0.07,0.24 -0.06,0.24 -0.07,0.23 -0.06,0.24 -0.07,0.23 -0.07,0.24 -0.06,0.24 -0.07,0.23 -0.07,0.24 -0.06,0.23 -0.07,0.24 -0.07,0.24 -0.07,0.23 -0.06,0.24 -0.07,0.23 -0.07,0.24 -0.07,0.23 -0.07,0.24 -0.07,0.23 -0.07,0.24 -0.07,0.23 -0.07,0.24 -0.01,0.01 v 0.01 0.01 l -0.01,0.01 v 0.01 l -0.01,0.03 v 0.01 0.01 0.01 l -0.01,0.01 v 0.02 l -0.01,0.02 v 0.01 0.02 l -0.01,0.04 -0.01,0.02 v 0.02 l -0.01,0.02 v 0.01 0.01 l -0.01,0.03 v 0.02 0.01 l -0.01,0.02 v 0.01 l -0.01,0.01 v 0.02 0.01 l -0.02,0.05 -0.01,0.04 -0.02,0.05 -0.01,0.05 -0.02,0.05 -0.01,0.04 -0.02,0.05 -0.01,0.05 -0.02,0.05 -0.01,0.04 -0.02,0.05 -0.02,0.05 -0.01,0.04 -0.02,0.05 -0.01,0.05 -0.02,0.04 -0.02,0.05 -0.01,0.05 -0.02,0.04 -0.07,0.19 -0.01,0.05 -0.02,0.05 -0.01,0.04 -0.02,0.05 -0.02,0.05 -0.01,0.04 -0.02,0.05 -0.02,0.05 -0.01,0.04 -0.02,0.05 -0.01,0.05 -0.02,0.04 -0.01,0.05 -0.02,0.05 -0.01,0.05 -0.02,0.04 -0.01,0.05 -0.09,0.29 -0.08,0.28 -0.09,0.28 -0.09,0.29 -0.09,0.28 -0.08,0.29 -0.09,0.28 -0.09,0.28 -0.09,0.29 -0.09,0.28 -0.09,0.28 -0.09,0.28 -0.09,0.29 -0.09,0.28 -0.1,0.28 -0.09,0.28 -0.09,0.29 -0.09,0.28 -0.1,0.28 -0.09,0.28 -0.1,0.28 -0.09,0.28 -0.1,0.28 -0.09,0.28 -0.1,0.29 -0.1,0.28 -0.1,0.28 -0.09,0.28 -0.1,0.28 -0.1,0.28 -0.1,0.28 -0.1,0.28 -0.1,0.27 -0.1,0.28 -0.1,0.28 -0.1,0.28 -0.1,0.28 -0.11,0.28 -0.1,0.28 -0.1,0.28 -0.15,0.39 -0.15,0.39 -0.15,0.39 -0.16,0.39 -0.15,0.39 -0.15,0.4 -0.16,0.39 -0.16,0.39 -0.15,0.38 -0.16,0.39 -0.16,0.39 -0.16,0.39 -0.16,0.39 -0.16,0.38 -0.16,0.39 -0.17,0.39 -0.16,0.38 -0.17,0.39 -0.16,0.38 -0.17,0.39 -0.17,0.38 -0.17,0.38 -0.16,0.39 -0.18,0.38 -0.17,0.38 -0.17,0.38 -0.17,0.38 -0.18,0.38 -0.17,0.38 -0.18,0.38 -0.18,0.38 -0.17,0.38 -0.18,0.38 -0.18,0.37 -0.18,0.38 -0.19,0.38 -0.18,0.37 -0.18,0.38 -0.19,0.37 -0.18,0.38 -0.18,0.36 -0.19,0.36 -0.18,0.37 -0.18,0.36 -0.19,0.36 -0.19,0.36 -0.18,0.36 -0.19,0.36 -0.19,0.36 -0.19,0.36 -0.19,0.36 -0.19,0.36 -0.19,0.35 -0.2,0.36 -0.19,0.36 -0.2,0.35 -0.19,0.36 -0.2,0.35 -0.2,0.36 -0.2,0.35 -0.2,0.36 -0.2,0.35 -0.2,0.35 -0.2,0.35 -0.2,0.36 -0.2,0.35 -0.21,0.35 -0.2,0.35 -0.21,0.35 -0.2,0.35 -0.21,0.35 -0.21,0.34 -0.21,0.35 -0.21,0.35 -0.21,0.35 -0.21,0.34 -0.21,0.35 -0.21,0.34 -0.21,0.35 -0.21,0.34 -0.11,0.18 -0.11,0.17 -0.11,0.17 -0.11,0.17 -0.11,0.17 -0.11,0.18 -0.11,0.17 -0.11,0.17 -0.11,0.17 -0.11,0.17 -0.12,0.17 -0.11,0.17 -0.11,0.18 -0.11,0.17 -0.11,0.17 -0.11,0.17 -0.12,0.17 -0.11,0.17 -0.11,0.17 -0.11,0.17 -0.12,0.17 -0.11,0.17 -0.11,0.17 -0.12,0.17 -0.11,0.17 -0.12,0.17 -0.11,0.17 -0.11,0.17 -0.12,0.16 -0.11,0.17 -0.12,0.17 -0.11,0.17 -0.12,0.17 -0.11,0.17 -0.12,0.17 -0.12,0.16 -0.11,0.17 -0.12,0.17 -0.11,0.17 -0.12,0.16 -0.09,0.14 -0.1,0.14 -0.09,0.13 -0.09,0.14 -0.1,0.13 -0.09,0.14 -0.19,0.27 -0.09,0.14 -0.09,0.14 -0.1,0.13 -0.09,0.14 -0.09,0.13 -0.1,0.14 -0.09,0.14 -0.09,0.13 -0.1,0.14 -0.09,0.13 -0.09,0.14 -0.1,0.13 -0.09,0.14 -0.09,0.14 -0.1,0.13 -0.09,0.14 -0.1,0.13 -0.09,0.14 -0.1,0.13 -0.09,0.14 -0.1,0.13 -0.09,0.13 -0.1,0.14 -0.1,0.13 -0.09,0.14 -0.1,0.13 -0.09,0.13 -0.1,0.14 -0.1,0.13 -0.1,0.13 -0.09,0.14 -0.1,0.13 -0.19,0.26 -0.19,0.25 -0.19,0.26 -0.19,0.25 -0.19,0.26 -0.19,0.25 -0.2,0.26 -0.19,0.25 -0.19,0.26 -0.19,0.25 -0.2,0.25 -0.19,0.26 -0.2,0.25 -0.19,0.25 -0.2,0.25 -0.19,0.25 -0.2,0.25 -0.2,0.26 -0.19,0.25 -0.2,0.25 -0.2,0.25 -0.2,0.24 -0.2,0.25 -0.19,0.25 -0.2,0.25 -0.2,0.25 -0.21,0.25 -0.2,0.24 -0.2,0.25 -0.2,0.25 -0.2,0.24 -0.2,0.25 -0.21,0.24 -0.2,0.25 -0.21,0.24 -0.2,0.25 -0.2,0.24 -0.21,0.24 -0.21,0.25 -0.2,0.24 h -0.01 v 0.01 h -0.01 v 0.01 h -0.01 l -0.01,0.01 v 0.01 l -0.01,0.01 v 0 l -0.01,0.01 -0.01,0.01 -0.01,0.01 v 0.01 l -0.01,0.01 v 0.01 l -0.01,0.01 -0.01,0.01 -0.01,0.02 -0.03,0.04 -0.02,0.02 -0.01,0.01 v 0.01 l -0.01,0.01 -0.01,0.01 -0.21,0.23 -1.45,1.67 -1.46,1.65 -1.48,1.64 -1.5,1.61 -1.51,1.6 -1.54,1.57 -1.55,1.56 -1.57,1.53 -1.59,1.51 -1.61,1.5 -1.62,1.47 -1.64,1.45 -1.66,1.43 -1.67,1.41 -1.69,1.39 -1.7,1.36 -1.72,1.35 -1.74,1.32 -1.75,1.3 -1.77,1.28 -1.78,1.25 -1.8,1.24 -1.81,1.21 -1.83,1.19 -1.84,1.16 -1.86,1.15 -1.86,1.12 -1.89,1.09 -1.89,1.07 -1.91,1.05 -1.93,1.03 -1.93,1 -1.95,0.98 -1.96,0.95 -1.97,0.93 -1.99,0.91 -2,0.88 -2,0.86 -2.02,0.83 -2.04,0.81 -0.06,0.02 -0.06,0.02 -0.06,0.03 -0.06,0.02 -0.07,0.03 -0.06,0.02 -0.06,0.02 -0.06,0.03 -0.06,0.02 -0.07,0.02 -0.06,0.03 -0.06,0.02 -0.06,0.02 -0.06,0.03 -0.07,0.02 -0.06,0.02 -0.06,0.03 -0.06,0.02 -0.06,0.02 -0.07,0.02 -0.06,0.03 -0.12,0.04 -0.13,0.05 -0.06,0.02 -0.06,0.02 -0.06,0.03 -0.07,0.02 -0.06,0.02 -0.06,0.02 -0.06,0.03 -0.07,0.02 -0.06,0.02 -0.06,0.03 -0.06,0.02 -0.06,0.02 -0.07,0.03 -0.06,0.02 -0.06,0.02 -0.26,0.11 -0.27,0.1 -0.26,0.1 -0.27,0.1 -0.26,0.09 -0.26,0.1 -0.27,0.1 -0.26,0.1 -0.27,0.1 -0.26,0.09 -0.27,0.1 -0.26,0.1 -0.27,0.09 -0.26,0.1 -0.27,0.09 -0.27,0.1 -0.26,0.09 -0.27,0.1 -0.26,0.09 -0.27,0.09 -0.27,0.09 -0.26,0.1 -0.27,0.09 -0.27,0.09 -0.26,0.09 -0.27,0.09 -0.27,0.09 -0.27,0.09 -0.26,0.09 -0.27,0.08 -0.27,0.09 -0.27,0.09 -0.26,0.09 -0.27,0.08 -0.27,0.09 -0.27,0.09 -0.27,0.08 -0.27,0.09 -0.27,0.08 -0.26,0.08 -0.34,0.11 -0.34,0.1 -0.34,0.1 -0.35,0.11 -0.34,0.1 -0.34,0.1 -0.34,0.1 -0.34,0.1 -0.34,0.09 -0.34,0.1 -0.34,0.1 -0.35,0.09 -0.34,0.1 -0.34,0.09 -0.34,0.1 -0.35,0.09 -0.34,0.09 -0.34,0.09 -0.35,0.09 -0.34,0.09 -0.34,0.09 -0.35,0.09 -0.34,0.09 -0.35,0.09 -0.34,0.08 -0.35,0.09 -0.34,0.08 -0.35,0.09 -0.34,0.08 -0.35,0.08 -0.34,0.08 -0.35,0.09 -0.34,0.08 -0.35,0.08 -0.35,0.08 -0.34,0.07 -0.35,0.08 -0.35,0.08 -0.34,0.08 -0.35,0.07 -0.05,0.02 -0.25,0.06 -0.18,0.05 -0.11,0.03 -0.07,0.02 -0.05,0.01 h -0.01 -0.01 -0.01 -0.01 -0.02 v 0 l -0.81,0.17 -0.82,0.17 -0.81,0.16 -0.81,0.16 -0.81,0.15 -0.82,0.15 -0.81,0.15 -0.82,0.14 -0.81,0.13 -0.82,0.14 -0.82,0.13 -0.82,0.12 -0.81,0.12 -0.82,0.11 -0.82,0.12 -0.83,0.1 -0.82,0.1 -0.82,0.1 -0.82,0.1 -0.83,0.09 -0.82,0.08 -0.82,0.08 -0.83,0.08 -0.83,0.07 -0.82,0.07 -0.83,0.07 -0.83,0.06 -0.82,0.05 -0.83,0.05 -0.83,0.05 -0.83,0.04 -0.83,0.04 -0.83,0.04 -0.83,0.02 -0.83,0.03 -0.83,0.02 -0.83,0.02 -0.83,0.01 -0.84,0.01 h -0.83 l -0.05,0.01 h -0.06 -0.05 -0.06 -0.05 l -0.06,0.01 h -0.05 -0.06 -0.05 -0.06 l -0.05,0.01 h -0.06 -0.05 -0.06 l -0.05,0.01 h -0.11 -0.06 l -0.16,0.01 -0.11,0.01 h -0.11 -0.06 -0.05 l -0.06,0.01 h -0.06 -0.05 -0.06 l -0.05,0.01 h -0.06 -0.05 -0.06 -0.05 l -0.06,0.01 h -0.05 -0.06 -0.05 -0.43 l -0.43,-0.01 h -0.42 l -0.43,-0.01 -0.43,-0.01 -0.43,-0.01 -0.43,-0.01 -0.42,-0.02 -0.43,-0.01 -0.43,-0.01 -0.42,-0.02 -0.43,-0.01 -0.43,-0.02 -0.43,-0.02 -0.42,-0.02 -0.43,-0.02 -0.43,-0.02 -0.43,-0.03 -0.42,-0.02 -0.43,-0.02 -0.43,-0.03 -0.42,-0.03 -0.43,-0.03 -0.43,-0.03 -0.42,-0.03 -0.43,-0.03 -0.43,-0.03 -0.42,-0.03 -0.43,-0.04 -0.43,-0.03 -0.42,-0.04 -0.43,-0.04 -0.42,-0.04 -0.43,-0.03 -0.43,-0.05 -0.42,-0.04 -0.43,-0.04 -0.42,-0.04 -0.43,-0.05 -0.42,-0.05 -0.25,-0.02 -0.25,-0.02 -0.25,-0.03 -0.25,-0.02 -0.25,-0.03 -0.25,-0.02 -0.25,-0.03 -0.24,-0.02 -0.25,-0.03 -0.25,-0.03 -0.25,-0.02 -0.25,-0.03 -0.25,-0.03 -0.25,-0.03 -0.24,-0.03 -0.25,-0.03 -0.25,-0.03 -0.25,-0.03 -0.25,-0.03 -0.24,-0.03 -0.25,-0.03 -0.25,-0.03 -0.25,-0.03 -0.25,-0.04 -0.24,-0.03 -0.25,-0.03 -0.25,-0.04 -0.25,-0.03 -0.24,-0.03 -0.25,-0.04 -0.25,-0.03 -0.25,-0.04 -0.24,-0.04 -0.25,-0.03 -0.25,-0.04 -0.24,-0.04 -0.25,-0.03 -0.25,-0.04 -0.25,-0.04 -0.24,-0.04 -0.11,-0.01 -0.11,-0.02 -0.11,-0.01 -0.11,-0.02 -0.11,-0.02 -0.11,-0.01 -0.12,-0.02 -0.11,-0.01 -0.11,-0.02 -0.11,-0.02 -0.11,-0.01 -0.11,-0.02 -0.11,-0.02 -0.11,-0.01 -0.11,-0.02 -0.11,-0.02 -0.11,-0.01 -0.11,-0.02 -0.11,-0.02 -0.11,-0.01 -0.11,-0.02 -0.11,-0.02 -0.11,-0.02 -0.11,-0.01 -0.11,-0.02 -0.11,-0.02 -0.11,-0.02 -0.11,-0.01 -0.11,-0.02 -0.11,-0.02 -0.11,-0.02 -0.11,-0.01 -0.11,-0.02 -0.11,-0.02 -0.11,-0.02 -0.11,-0.02 -0.11,-0.02 -0.11,-0.02 -0.11,-0.01 -0.11,-0.02 -0.36,-0.07 -0.36,-0.07 -0.36,-0.07 -0.37,-0.07 -0.36,-0.07 -0.36,-0.07 -0.36,-0.07 -0.36,-0.07 -0.36,-0.07 -0.36,-0.08 -0.35,-0.07 -0.36,-0.08 -0.36,-0.08 -0.36,-0.07 -0.36,-0.08 -0.36,-0.08 -0.36,-0.08 -0.36,-0.08 -0.35,-0.08 -0.36,-0.09 -0.36,-0.08 -0.36,-0.08 -0.35,-0.09 -0.36,-0.08 -0.36,-0.09 -0.35,-0.09 -0.36,-0.08 -0.36,-0.09 -0.35,-0.09 -0.36,-0.09 -0.35,-0.09 -0.36,-0.09 -0.35,-0.1 -0.36,-0.09 -0.35,-0.09 -0.36,-0.1 -0.35,-0.09 -0.36,-0.1 -0.35,-0.1 -0.36,-0.09 -0.12,-0.04 -0.13,-0.04 -0.12,-0.03 -0.13,-0.04 -0.13,-0.04 -0.12,-0.03 -0.13,-0.04 -0.12,-0.04 -0.13,-0.03 -0.12,-0.04 -0.13,-0.04 -0.13,-0.04 -0.12,-0.03 -0.13,-0.04 -0.12,-0.04 -0.13,-0.04 -0.12,-0.04 -0.13,-0.03 -0.12,-0.04 -0.13,-0.04 -0.12,-0.04 -0.13,-0.04 -0.13,-0.03 -0.12,-0.04 -0.13,-0.04 -0.12,-0.04 -0.13,-0.04 -0.12,-0.04 -0.13,-0.04 -0.12,-0.04 -0.13,-0.04 -0.12,-0.03 -0.13,-0.04 -0.12,-0.04 -0.13,-0.04 -0.12,-0.04 -0.13,-0.04 -0.12,-0.04 -0.13,-0.04 -0.12,-0.04 -0.23,-0.07 -0.22,-0.07 -0.23,-0.07 -0.23,-0.08 -0.22,-0.07 -0.23,-0.07 -0.23,-0.07 -0.22,-0.07 -0.23,-0.08 -0.22,-0.07 -0.23,-0.07 -0.22,-0.08 -0.23,-0.07 -0.23,-0.08 -0.22,-0.07 -0.23,-0.08 -0.22,-0.07 -0.23,-0.08 -0.22,-0.07 -0.23,-0.08 -0.22,-0.07 -0.23,-0.08 -0.22,-0.08 -0.22,-0.08 -0.23,-0.07 -0.22,-0.08 -0.23,-0.08 -0.22,-0.08 -0.22,-0.08 -0.23,-0.08 -0.22,-0.08 -0.23,-0.08 -0.22,-0.08 -0.22,-0.08 -0.23,-0.08 -0.22,-0.08 -0.22,-0.08 -0.22,-0.09 -0.23,-0.08 -0.22,-0.08 -0.17,-0.06 -0.17,-0.06 -0.17,-0.06 -0.16,-0.06 -0.17,-0.06 -0.17,-0.06 -0.17,-0.07 -0.17,-0.06 -0.17,-0.06 -0.16,-0.06 -0.17,-0.06 -0.17,-0.07 -0.17,-0.06 -0.17,-0.06 -0.16,-0.06 -0.17,-0.07 -0.17,-0.06 -0.17,-0.06 -0.16,-0.07 -0.17,-0.06 -0.17,-0.06 -0.17,-0.07 -0.16,-0.06 -0.17,-0.07 -0.17,-0.06 -0.17,-0.06 -0.16,-0.07 -0.17,-0.06 -0.17,-0.07 -0.16,-0.06 -0.17,-0.07 -0.17,-0.07 -0.16,-0.06 -0.17,-0.07 -0.17,-0.06 -0.16,-0.07 -0.17,-0.07 -0.17,-0.06 -0.16,-0.07 -0.17,-0.07 -0.53,-0.22 -0.52,-0.22 -0.53,-0.23 -0.52,-0.23 -0.52,-0.22 -0.53,-0.24 -0.52,-0.23 -0.52,-0.23 -0.52,-0.24 -0.52,-0.24 -0.52,-0.24 -0.52,-0.24 -0.51,-0.24 -0.52,-0.24 -0.51,-0.25 -0.52,-0.25 -0.51,-0.25 -0.52,-0.25 -0.51,-0.25 -0.51,-0.26 -0.51,-0.25 -0.51,-0.26 -0.51,-0.26 -0.51,-0.26 -0.51,-0.26 -0.5,-0.27 -0.51,-0.27 -0.51,-0.26 -0.5,-0.27 -0.5,-0.27 -0.51,-0.28 -0.5,-0.27 -0.5,-0.28 -0.5,-0.28 -0.5,-0.28 -0.5,-0.28 -0.5,-0.28 -0.49,-0.28 -0.5,-0.29 -0.49,-0.29 -0.05,-0.03 -0.05,-0.02 -0.02,-0.02 -0.05,-0.03 -0.05,-0.02 -0.16,-0.1 -0.03,-0.01 -0.05,-0.03 -0.04,-0.03 -0.03,-0.01 -0.04,-0.03 -0.03,-0.01 -0.05,-0.03 -0.04,-0.03 -0.03,-0.01 -0.02,-0.02 -0.02,-0.01 -0.03,-0.01 -0.02,-0.02 -0.03,-0.01 -0.02,-0.02 -0.02,-0.01 -0.03,-0.01 -0.02,-0.02 -0.02,-0.01 -0.75,-0.44 -0.74,-0.45 -0.74,-0.44 -0.74,-0.45 -0.73,-0.46 -0.74,-0.45 -0.73,-0.47 -0.73,-0.46 -0.73,-0.47 -0.72,-0.47 -0.72,-0.48 -0.72,-0.48 -0.72,-0.48 -0.71,-0.48 -0.72,-0.49 -0.71,-0.5 -0.71,-0.49 -0.7,-0.5 -0.71,-0.51 -0.7,-0.51 -0.7,-0.51 -0.69,-0.51 -0.7,-0.52 -0.69,-0.52 -0.69,-0.52 -0.68,-0.53 -0.69,-0.53 -0.68,-0.54 -0.68,-0.54 -0.67,-0.54 -0.68,-0.54 -0.67,-0.55 -0.67,-0.55 -0.66,-0.56 -0.67,-0.56 -0.66,-0.56 -0.66,-0.56 -0.65,-0.57 -0.66,-0.57 -0.65,-0.58 -0.38,-0.34 -0.38,-0.34 -0.38,-0.34 -0.38,-0.35 -0.38,-0.34 -0.37,-0.35 -0.38,-0.34 -0.38,-0.35 -0.37,-0.35 -0.37,-0.35 -0.38,-0.35 -0.37,-0.35 -0.37,-0.36 -0.37,-0.35 -0.36,-0.36 -0.37,-0.35 -0.37,-0.36 -0.36,-0.36 -0.37,-0.36 -0.36,-0.36 -0.36,-0.36 -0.36,-0.36 -0.36,-0.37 -0.36,-0.36 -0.36,-0.37 -0.36,-0.36 -0.35,-0.37 -0.36,-0.37 -0.35,-0.37 -0.36,-0.37 -0.35,-0.38 -0.35,-0.37 -0.35,-0.37 -0.35,-0.38 -0.35,-0.37 -0.34,-0.38 -0.35,-0.38 -0.34,-0.38 -0.35,-0.38 -0.34,-0.38 -0.06,-0.07 -0.07,-0.07 -0.06,-0.08 -0.07,-0.07 -0.06,-0.07 -0.07,-0.07 -0.06,-0.07 -0.07,-0.07 -0.06,-0.07 -0.07,-0.07 -0.06,-0.07 -0.07,-0.07 -0.07,-0.07 -0.06,-0.07 -0.07,-0.07 -0.06,-0.07 -0.07,-0.07 -0.06,-0.07 -0.07,-0.07 -0.06,-0.07 -0.07,-0.07 -0.06,-0.07 -0.07,-0.07 -0.06,-0.07 -0.07,-0.07 -0.06,-0.08 -0.07,-0.07 -0.06,-0.07 -0.07,-0.07 -0.06,-0.07 -0.07,-0.07 -0.06,-0.07 -0.07,-0.07 -0.06,-0.07 -0.07,-0.08 -0.06,-0.07 -0.06,-0.07 -0.07,-0.07 -0.06,-0.08 -0.06,-0.07 -0.14,-0.16 -0.13,-0.15 -0.13,-0.16 -0.14,-0.16 -0.13,-0.16 -0.14,-0.16 -0.13,-0.15 -0.13,-0.16 -0.13,-0.16 -0.14,-0.16 -0.13,-0.16 -0.13,-0.16 -0.13,-0.16 -0.14,-0.16 -0.13,-0.16 -0.13,-0.16 -0.13,-0.16 -0.13,-0.16 -0.13,-0.16 -0.13,-0.16 -0.13,-0.16 -0.13,-0.16 -0.13,-0.16 -0.13,-0.16 -0.13,-0.16 -0.13,-0.17 -0.13,-0.16 -0.13,-0.16 -0.13,-0.16 -0.13,-0.16 -0.13,-0.16 -0.13,-0.17 -0.13,-0.16 -0.13,-0.16 -0.12,-0.17 -0.13,-0.16 -0.13,-0.16 -0.13,-0.16 -0.12,-0.17 -0.13,-0.16 -0.13,-0.17 -0.14,-0.17 -0.13,-0.17 -0.13,-0.17 -0.13,-0.17 -0.13,-0.17 -0.13,-0.17 -0.13,-0.17 -0.13,-0.17 -0.13,-0.17 -0.13,-0.17 -0.13,-0.17 -0.13,-0.17 -0.13,-0.17 -0.13,-0.17 -0.13,-0.18 -0.13,-0.17 -0.13,-0.17 -0.13,-0.17 -0.12,-0.17 -0.13,-0.18 -0.13,-0.17 -0.13,-0.17 -0.12,-0.17 -0.13,-0.18 -0.13,-0.17 -0.12,-0.17 -0.13,-0.18 -0.13,-0.17 -0.12,-0.18 -0.13,-0.17 -0.12,-0.17 -0.13,-0.18 -0.12,-0.17 -0.13,-0.18 -0.12,-0.17 -0.13,-0.18 -0.12,-0.17 -0.13,-0.18 -0.12,-0.17 -0.12,-0.16 -0.11,-0.16 -0.12,-0.16 -0.11,-0.16 -0.11,-0.16 -0.12,-0.16 -0.11,-0.16 -0.11,-0.16 -0.11,-0.16 -0.12,-0.16 -0.11,-0.16 -0.11,-0.16 -0.11,-0.16 -0.12,-0.16 -0.11,-0.16 -0.11,-0.16 -0.11,-0.17 -0.11,-0.16 -0.11,-0.16 -0.11,-0.16 -0.11,-0.16 -0.11,-0.16 -0.11,-0.17 -0.11,-0.16 -0.11,-0.16 -0.11,-0.16 -0.11,-0.17 -0.11,-0.16 -0.11,-0.16 -0.11,-0.16 -0.11,-0.17 -0.11,-0.16 -0.11,-0.16 -0.11,-0.17 -0.1,-0.16 -0.11,-0.16 -0.11,-0.17 -0.11,-0.16 -0.11,-0.17 -0.1,-0.16 -0.16,-0.25 -0.16,-0.24 -0.16,-0.25 -0.16,-0.25 -0.15,-0.25 -0.16,-0.24 -0.16,-0.25 -0.15,-0.25 -0.16,-0.25 -0.15,-0.25 -0.16,-0.25 -0.15,-0.25 -0.16,-0.25 -0.15,-0.25 -0.15,-0.25 -0.16,-0.25 -0.15,-0.25 -0.15,-0.25 -0.15,-0.25 -0.15,-0.25 -0.15,-0.26 -0.15,-0.25 -0.15,-0.25 -0.15,-0.25 -0.15,-0.26 -0.15,-0.25 -0.15,-0.25 -0.14,-0.26 -0.15,-0.25 -0.15,-0.26 -0.14,-0.25 -0.15,-0.26 -0.15,-0.25 -0.14,-0.26 -0.15,-0.25 -0.14,-0.26 -0.14,-0.26 -0.15,-0.25 -0.14,-0.26 -0.14,-0.26 -0.1,-0.18 -0.1,-0.18 -0.1,-0.17 -0.09,-0.18 -0.1,-0.18 -0.1,-0.18 -0.09,-0.18 -0.1,-0.18 -0.1,-0.18 -0.09,-0.18 -0.1,-0.18 -0.09,-0.18 -0.1,-0.18 -0.1,-0.18 -0.09,-0.18 -0.1,-0.18 -0.09,-0.18 -0.09,-0.18 -0.1,-0.18 -0.09,-0.18 -0.1,-0.18 -0.09,-0.18 -0.09,-0.18 -0.1,-0.18 -0.09,-0.18 -0.09,-0.18 -0.1,-0.19 -0.09,-0.18 -0.09,-0.18 -0.09,-0.18 -0.1,-0.18 -0.09,-0.18 -0.09,-0.19 -0.09,-0.18 -0.09,-0.18 -0.09,-0.18 -0.09,-0.18 -0.09,-0.19 -0.09,-0.18 -0.09,-0.18 -0.03,-0.05 -0.02,-0.04 -0.02,-0.05 -0.03,-0.04 -0.02,-0.05 -0.02,-0.05 -0.03,-0.04 -0.02,-0.05 -0.02,-0.04 -0.03,-0.05 -0.02,-0.04 -0.03,-0.05 -0.02,-0.04 -0.02,-0.05 -0.03,-0.04 -0.02,-0.05 -0.03,-0.04 -0.05,-0.09 -0.05,-0.09 -0.02,-0.05 -0.02,-0.04 -0.03,-0.05 -0.02,-0.04 -0.03,-0.05 -0.02,-0.04 -0.03,-0.05 -0.02,-0.04 -0.02,-0.05 -0.03,-0.05 -0.02,-0.04 -0.02,-0.05 -0.03,-0.04 -0.02,-0.05 -0.02,-0.04 -0.03,-0.05 -0.02,-0.05 -0.02,-0.04 -0.02,-0.05 -0.01,-0.02 -0.01,-0.02 -0.01,-0.03 -0.01,-0.02 -0.01,-0.02 -0.01,-0.02 v -0.03 l -0.01,-0.02 -0.01,-0.02 -0.01,-0.02 -0.01,-0.03 -0.01,-0.02 v -0.02 l -0.01,-0.03 -0.01,-0.02 -0.01,-0.02 -0.01,-0.03 -0.01,-0.04 -0.04,-0.12 -0.01,-0.02 -0.01,-0.02 -0.01,-0.05 -0.01,-0.02 -0.01,-0.02 -0.01,-0.03 v -0.02 l -0.01,-0.02 -0.01,-0.02 -0.01,-0.03 -0.01,-0.02 v -0.02 l -0.01,-0.02 -0.01,-0.02 -0.01,-0.02 -0.89,-1.87 -0.86,-1.88 -0.85,-1.89 -0.82,-1.89 -0.81,-1.91 -0.78,-1.91 -0.76,-1.92 -0.73,-1.93 -0.72,-1.94 -0.69,-1.94 -0.68,-1.95 -0.65,-1.96 -0.62,-1.96 -0.61,-1.98 -0.58,-1.98 -0.57,-1.98 -0.54,-1.99 -0.51,-2 -0.5,-2 -0.47,-2.01 -0.45,-2.01 -0.43,-2.02 -0.41,-2.03 -0.38,-2.03 -0.36,-2.03 -0.34,-2.04 -0.31,-2.04 -0.3,-2.05 -0.27,-2.05 -0.24,-2.05 -0.23,-2.06 -0.2,-2.06 -0.18,-2.06 -0.15,-2.07 -0.14,-2.06 -0.11,-2.08 -0.08,-2.07 -0.07,-2.07 -0.04,-2.08 -0.02,-2.08 0.05,-3.69 0.11,-3.67 0.19,-3.67 0.26,-3.65 0.33,-3.65 0.4,-3.63 0.47,-3.62 0.54,-3.6 0.61,-3.58 0.68,-3.57 0.75,-3.55 0.82,-3.53 0.89,-3.51 0.95,-3.49 1.02,-3.47 1.09,-3.44 1.15,-3.42 1.22,-3.4 1.29,-3.37 1.35,-3.34 1.42,-3.31 1.48,-3.29 1.54,-3.25 1.61,-3.22 1.66,-3.19 1.74,-3.16 1.79,-3.12 1.86,-3.09 1.92,-3.05 1.97,-3.02 2.04,-2.97 2.1,-2.94 2.16,-2.89 2.22,-2.86 2.27,-2.81 2.34,-2.77 2.39,-2.72 2.45,-2.68 2.51,-2.63 2.56,-2.59 0.03,-0.03 0.03,-0.04 0.03,-0.04 0.02,-0.03 0.03,-0.04 0.03,-0.04 0.02,-0.03 0.03,-0.04 0.03,-0.04 0.02,-0.03 0.03,-0.04 0.03,-0.03 0.02,-0.04 0.03,-0.04 0.02,-0.03 0.03,-0.04 0.02,-0.04 0.03,-0.03 0.08,-0.11 0.02,-0.04 0.03,-0.04 0.02,-0.03 0.03,-0.04 0.03,-0.03 0.02,-0.04 0.03,-0.04 0.02,-0.03 0.03,-0.04 0.03,-0.04 0.02,-0.03 0.03,-0.04 0.03,-0.04 0.02,-0.03 0.03,-0.04 0.03,-0.04 0.03,-0.03 0.02,-0.04 0.03,-0.04 1.47,-1.46 1.49,-1.44 1.5,-1.42 1.52,-1.4 1.54,-1.38 1.55,-1.36 1.57,-1.33 1.58,-1.31 1.6,-1.29 1.61,-1.27 1.63,-1.24 1.64,-1.22 1.66,-1.21 1.67,-1.17 1.68,-1.16 1.7,-1.14 1.71,-1.11 1.72,-1.09 1.74,-1.07 1.74,-1.05 1.76,-1.03 1.77,-1 1.79,-0.98 1.79,-0.96 1.8,-0.94 1.82,-0.92 1.82,-0.89 1.84,-0.88 1.84,-0.85 1.86,-0.83 1.86,-0.8 1.87,-0.79 1.89,-0.76 1.88,-0.75 1.9,-0.72 1.91,-0.69 1.91,-0.68 1.92,-0.65 1.93,-0.64 1.94,-0.61 0.14,-0.02 0.37,-0.12 0.37,-0.11 0.37,-0.11 0.37,-0.11 0.37,-0.11 0.37,-0.11 0.37,-0.11 0.37,-0.11 0.37,-0.11 0.37,-0.1 0.37,-0.11 0.37,-0.1 0.37,-0.11 0.37,-0.1 0.37,-0.1 0.37,-0.11 0.37,-0.1 0.37,-0.1 0.38,-0.1 0.37,-0.1 0.37,-0.09 0.37,-0.1 0.38,-0.1 0.37,-0.09 0.37,-0.1 0.37,-0.09 0.38,-0.09 0.37,-0.1 0.38,-0.09 0.37,-0.09 0.37,-0.09 0.38,-0.09 0.37,-0.08 0.38,-0.09 0.37,-0.09 0.38,-0.08 0.38,-0.09 0.37,-0.08 0.38,-0.08 0.37,-0.08 0.09,-0.02 0.08,-0.02 0.08,-0.02 0.09,-0.02 0.08,-0.02 0.08,-0.02 0.09,-0.02 0.08,-0.02 0.08,-0.02 0.09,-0.01 0.08,-0.02 0.08,-0.02 0.08,-0.02 0.09,-0.02 0.08,-0.02 0.08,-0.02 0.09,-0.02 0.08,-0.01 0.08,-0.02 0.09,-0.02 0.08,-0.02 0.08,-0.02 0.09,-0.02 0.08,-0.02 0.08,-0.01 0.09,-0.02 0.08,-0.02 0.08,-0.02 0.09,-0.02 0.08,-0.01 0.08,-0.02 0.09,-0.02 0.08,-0.02 0.08,-0.01 0.09,-0.02 0.08,-0.02 0.08,-0.02 0.09,-0.01 0.08,-0.02 0.08,-0.02 0.33,-0.06 0.34,-0.06 0.33,-0.07 0.33,-0.06 0.33,-0.06 0.33,-0.06 0.33,-0.06 0.34,-0.06 0.33,-0.06 0.33,-0.06 0.33,-0.06 0.34,-0.05 0.33,-0.06 0.33,-0.05 0.33,-0.06 0.34,-0.05 0.33,-0.05 0.33,-0.06 0.34,-0.05 0.33,-0.05 0.33,-0.05 0.34,-0.05 0.33,-0.05 0.33,-0.05 0.34,-0.05 0.33,-0.05 0.34,-0.04 0.33,-0.05 0.33,-0.05 0.34,-0.04 0.33,-0.05 0.34,-0.04 0.33,-0.04 0.34,-0.05 0.33,-0.04 0.34,-0.04 0.33,-0.04 0.34,-0.04 0.33,-0.04 0.34,-0.04 0.09,-0.02 0.09,-0.01 0.09,-0.01 0.09,-0.02 0.09,-0.01 0.09,-0.01 0.09,-0.01 0.09,-0.01 0.09,-0.02 0.09,-0.01 0.09,-0.01 0.09,-0.01 0.09,-0.02 0.09,-0.01 0.09,-0.01 0.09,-0.01 0.09,-0.02 0.09,-0.01 0.09,-0.01 0.09,-0.01 0.09,-0.01 0.09,-0.02 0.09,-0.01 0.09,-0.01 0.09,-0.01 0.09,-0.01 0.09,-0.02 0.09,-0.01 0.09,-0.01 0.09,-0.01 0.18,-0.03 0.18,-0.02 0.09,-0.01 0.18,-0.03 0.28,-0.03 0.4,-0.04 0.4,-0.04 0.4,-0.04 0.4,-0.03 0.4,-0.04 0.4,-0.03 0.4,-0.04 0.4,-0.03 0.4,-0.03 0.4,-0.03 0.4,-0.03 0.4,-0.03 0.41,-0.03 0.4,-0.03 0.4,-0.02 0.4,-0.03 0.4,-0.02 0.4,-0.03 0.4,-0.02 0.41,-0.02 0.4,-0.02 0.4,-0.02 0.4,-0.02 0.4,-0.02 0.4,-0.01 0.4,-0.02 0.41,-0.02 0.4,-0.01 0.4,-0.01 0.4,-0.02 0.4,-0.01 0.41,-0.01 0.4,-0.01 h 0.4 l 0.4,-0.01 0.4,-0.01 h 0.41 l 0.4,-0.01 h 0.4 0.4 l 0.08,-0.01 h 0.05 0.05 0.03 0.02 l 0.05,-0.01 h 0.03 0.05 0.02 0.03 0.02 0.03 0.02 l 0.03,-0.01 h 0.03 0.02 0.03 0.02 0.03 l 0.02,-0.01 h 0.03 0.02 0.03 0.02 l 0.03,-0.01 h 0.03 0.02 0.03 0.02 l 0.03,-0.01 h 0.02 0.03 l 0.02,-0.01 h 0.03 0.17 z m -93.44,272.11 h 42.03 l 15.5,-45.37 h 70.82 l 15.49,45.37 H 415.4 L 344.61,202.01 h -44.26 z"
       id="j16lQs8Y2" />
  </defs>
  <g
     id="g3007"
     transform="matrix(0.07726184,0,0,0.07726184,-1.252856,-0.72376994)">
    <circle
       style="opacity:1;fill:#947a7a;fill-opacity:1;stroke:none;stroke-width:63.6447;stroke-linecap:square;stroke-miterlimit:4;stroke-dasharray:none;stroke-dashoffset:0;stroke-opacity:1;paint-order:stroke markers fill"
       id="path840"
       cx="326.84772"
       cy="319.99976"
       r="284.746" />
    <g
       id="g24"
       transform="matrix(0.78318301,0,0,0.78318301,76.877055,75.5902)">
      <g
         id="g22">
        <g
           id="g12"
           style="fill:#b3b3b3">
          <use
             xlink:href="#eFnpqIJNn"
             id="use6"
             style="opacity:1;fill:#b3b3b3;fill-opacity:1"
             x="0"
             y="0"
             width="100%"
             height="100%" />
          <g
             id="g10"
             style="fill:#b3b3b3">
            <use
               xlink:href="#eFnpqIJNn"
               id="use8"
               style="opacity:1;fill:#b3b3b3;fill-opacity:0;stroke:#000000;stroke-width:2.5;stroke-opacity:0"
               x="0"
               y="0"
               width="100%"
               height="100%" />
          </g>
        </g>
        <g
           id="g20"
           style="fill:#f2f2f2">
          <use
             xlink:href="#j16lQs8Y2"
             id="use14"
             style="opacity:1;fill:#f2f2f2;fill-opacity:1"
             x="0"
             y="0"
             width="100%"
             height="100%" />
          <g
             id="g18"
             style="fill:#f2f2f2">
            <use
               xlink:href="#j16lQs8Y2"
               id="use16"
               style="opacity:1;fill:#f2f2f2;fill-opacity:0;stroke:#000000;stroke-width:1.78;stroke-opacity:0"
               x="0"
               y="0"
               width="100%"
               height="100%" />
          </g>
        </g>
      </g>
    </g>
  </g>
</svg>
