<?xml version="1.0" encoding="UTF-8" standalone="no"?>
<svg
   width="48"
   height="48"
   viewBox="0 0 48 48"
   version="1.1"
   xml:space="preserve"
   style="clip-rule:evenodd;fill-rule:evenodd;stroke-linejoin:round;stroke-miterlimit:2"
   id="svg39"
   sodipodi:docname="com.github.johnfactotum.Foliate.svg"
   inkscape:version="1.2.2 (b0a8486541, 2022-12-01)"
   xmlns:inkscape="http://www.inkscape.org/namespaces/inkscape"
   xmlns:sodipodi="http://sodipodi.sourceforge.net/DTD/sodipodi-0.dtd"
   xmlns="http://www.w3.org/2000/svg"
   xmlns:svg="http://www.w3.org/2000/svg"
   xmlns:rdf="http://www.w3.org/1999/02/22-rdf-syntax-ns#"
   xmlns:cc="http://creativecommons.org/ns#"
   xmlns:dc="http://purl.org/dc/elements/1.1/"><metadata
     id="metadata45"><rdf:RDF><cc:Work
         rdf:about=""><dc:format>image/svg+xml</dc:format><dc:type
           rdf:resource="http://purl.org/dc/dcmitype/StillImage" /></cc:Work></rdf:RDF></metadata><defs
     id="defs43" /><sodipodi:namedview
     pagecolor="#ffffff"
     bordercolor="#666666"
     borderopacity="1"
     objecttolerance="10"
     gridtolerance="10"
     guidetolerance="10"
     inkscape:pageopacity="0"
     inkscape:pageshadow="2"
     inkscape:window-width="1280"
     inkscape:window-height="755"
     id="namedview41"
     showgrid="false"
     inkscape:zoom="1.4945444"
     inkscape:cx="22.749408"
     inkscape:cy="181.32616"
     inkscape:window-x="0"
     inkscape:window-y="0"
     inkscape:window-maximized="1"
     inkscape:current-layer="svg39"
     inkscape:showpageshadow="2"
     inkscape:pagecheckerboard="0"
     inkscape:deskcolor="#d1d1d1" /><g
     id="g2392"
     transform="matrix(0.04560314,0,0,0.04560314,0.90473399,0.20598304)"><g
       id="g4558"
       transform="matrix(1.1773736,0,0,1.1773736,-96.214918,-81.052594)"><circle
         cx="511.86401"
         cy="512"
         r="409.745"
         style="fill:#83a9ba;fill-opacity:1"
         id="circle2" /><path
         d="m 470.469,314.006 c 10.101,0 19.788,4.012 26.93,11.154 7.143,7.143 11.155,16.829 11.155,26.93 v 363.137 h 70.743 -70.743 -235.406 c -12.818,0 -25.11,-4.583 -34.174,-12.739 -9.063,-8.157 -14.155,-19.22 -14.155,-30.755 V 357.499 c 0,-11.535 5.092,-22.598 14.155,-30.754 9.064,-8.157 21.356,-12.739 34.174,-12.739 z"
         style="fill:#ffffff;fill-opacity:1"
         id="path4"
         inkscape:connector-curvature="0" /><path
         d="M 511.771,715.227 V 352.106 c 0,-10.105 4.014,-19.796 11.159,-26.941 7.145,-7.145 16.836,-11.159 26.941,-11.159 h 195.963 c 13.009,0 25.484,4.582 34.683,12.739 9.198,8.156 14.366,19.219 14.366,30.754 v 314.234 c 0,11.535 -5.168,22.598 -14.366,30.755 -9.199,8.156 -21.674,12.739 -34.683,12.739 z"
         style="fill:#ffffff;fill-opacity:1"
         id="path6"
         inkscape:connector-curvature="0" /><path
         d="m 511.771,714.733 c 0,0 0.162,23.944 0.213,31.547 0.003,0.267 0.185,0.5 0.445,0.565 0.259,0.066 0.53,-0.052 0.659,-0.286 2.351,-4.295 7.988,-14.328 11.617,-18.636 3.663,-4.347 12.109,-12.462 15.274,-12.699 2.243,-0.168 0.338,-0.231 0.338,-0.231 z"
         style="fill:#ededed"
         id="path8"
         inkscape:connector-curvature="0" /><path
         d="m 508.554,714.733 c 0,0 -0.162,23.943 -0.213,31.546 -0.003,0.268 -0.185,0.5 -0.444,0.565 -0.26,0.066 -0.531,-0.052 -0.66,-0.286 -2.35,-4.295 -7.985,-14.327 -11.613,-18.635 -3.662,-4.347 -12.105,-12.462 -15.269,-12.699 -2.243,-0.168 -0.338,-0.231 -0.338,-0.231 z"
         style="fill:#ededed"
         id="path10"
         inkscape:connector-curvature="0" /><path
         d="m 301.009,217.745 c 0,0 -29.201,62.575 -42.885,128.486 -9.618,46.327 -10.133,107.275 0,134.052 25.444,67.234 103.946,82.835 131.575,80.258 64.452,-6.01 -88.69,-342.796 -88.69,-342.796 z"
         style="fill:#03cbcc"
         id="path12"
         inkscape:connector-curvature="0" /><path
         d="m 301.047,217.745 c 0,0 56.577,39.592 101.382,89.83 31.493,35.311 62.414,87.836 67.027,116.093 11.581,70.948 -48.603,123.709 -73.819,135.293 -58.822,27.02 -94.59,-341.216 -94.59,-341.216 z"
         style="fill:#03cbcc"
         id="path14"
         inkscape:connector-curvature="0" /><path
         d="m 576.688,389.644 c -1.394,0 -2.524,1.13 -2.524,2.525 0,5.021 0,16.211 0,21.232 0,1.395 1.13,2.525 2.524,2.525 15.094,0 93.255,0 108.349,0 1.394,0 2.524,-1.13 2.524,-2.525 0,-5.021 0,-16.211 0,-21.232 0,-1.395 -1.13,-2.525 -2.524,-2.525 -15.094,0 -93.255,0 -108.349,0 z"
         style="fill:#83a9ba;fill-opacity:1"
         id="path16"
         inkscape:connector-curvature="0" /><path
         d="m 576.688,446.378 c -0.669,0 -1.312,0.266 -1.785,0.739 -0.473,0.473 -0.739,1.116 -0.739,1.785 v 21.233 c 0,0.669 0.266,1.312 0.739,1.785 0.473,0.473 1.116,0.739 1.785,0.739 h 86.346 c 0.67,0 1.312,-0.266 1.785,-0.739 0.474,-0.473 0.74,-1.116 0.74,-1.785 v -21.233 c 0,-0.669 -0.266,-1.312 -0.74,-1.785 -0.473,-0.473 -1.115,-0.739 -1.785,-0.739 z"
         style="fill:#83a9ba;fill-opacity:1"
         id="path18"
         inkscape:connector-curvature="0" /><path
         d="m 576.688,503.02 c -1.394,0 -2.524,1.13 -2.524,2.525 0,5.021 0,16.211 0,21.232 0,1.395 1.13,2.525 2.524,2.525 15.094,0 93.255,0 108.349,0 1.394,0 2.524,-1.13 2.524,-2.525 0,-5.021 0,-16.211 0,-21.232 0,-1.395 -1.13,-2.525 -2.524,-2.525 -15.094,0 -93.255,0 -108.349,0 z"
         style="fill:#83a9ba;fill-opacity:1"
         id="path20"
         inkscape:connector-curvature="0" /><g
         id="g36"><path
           d="m 340.246,305.189 c -0.173,-0.647 -0.596,-1.198 -1.176,-1.533 -0.58,-0.335 -1.269,-0.426 -1.916,-0.252 -5.187,1.389 -17.264,4.626 -22.451,6.015 -0.647,0.174 -1.198,0.597 -1.533,1.177 -0.335,0.58 -0.426,1.269 -0.252,1.915 7.883,29.423 84.595,315.714 92.479,345.137 0.173,0.647 0.596,1.198 1.176,1.533 0.58,0.335 1.269,0.425 1.916,0.252 5.187,-1.39 17.264,-4.626 22.451,-6.016 0.647,-0.173 1.198,-0.596 1.533,-1.176 0.335,-0.58 0.426,-1.269 0.252,-1.916 -7.883,-29.422 -84.595,-315.714 -92.479,-345.136 z"
           style="fill:#1ba7a7"
           id="path22"
           inkscape:connector-curvature="0" /><path
           d="m 312.692,460.605 c -1.208,-0.697 -2.752,-0.284 -3.449,0.924 -1.667,2.888 -4.587,7.946 -6.255,10.834 -0.697,1.207 -0.283,2.751 0.924,3.449 10.528,6.078 55.924,32.287 66.453,38.366 1.207,0.697 2.751,0.283 3.448,-0.924 1.668,-2.888 4.588,-7.946 6.255,-10.834 0.697,-1.208 0.284,-2.752 -0.924,-3.449 -10.528,-6.078 -55.924,-32.288 -66.452,-38.366 z"
           style="fill:#1ba7a7"
           id="path24"
           inkscape:connector-curvature="0" /><path
           d="m 310.335,406.588 c -0.58,-0.335 -1.269,-0.425 -1.916,-0.252 -0.646,0.173 -1.198,0.596 -1.533,1.176 -1.667,2.888 -4.587,7.946 -6.255,10.834 -0.334,0.58 -0.425,1.269 -0.252,1.916 0.173,0.647 0.597,1.198 1.176,1.533 8.929,5.155 42.577,24.581 51.505,29.736 0.58,0.335 1.269,0.426 1.916,0.252 0.647,-0.173 1.198,-0.596 1.533,-1.176 1.668,-2.888 4.588,-7.946 6.255,-10.834 0.335,-0.58 0.426,-1.269 0.252,-1.916 -0.173,-0.646 -0.596,-1.198 -1.176,-1.533 -8.929,-5.155 -42.576,-24.581 -51.505,-29.736 z"
           style="fill:#1ba7a7"
           id="path26"
           inkscape:connector-curvature="0" /><path
           d="m 309.816,357.765 c -1.208,-0.697 -2.752,-0.283 -3.449,0.924 -1.668,2.888 -4.588,7.946 -6.255,10.834 -0.697,1.208 -0.283,2.752 0.924,3.449 7.563,4.366 32.561,18.799 40.124,23.165 1.207,0.698 2.751,0.284 3.448,-0.924 1.668,-2.888 4.588,-7.945 6.255,-10.834 0.698,-1.207 0.284,-2.751 -0.924,-3.448 -7.562,-4.367 -32.561,-18.8 -40.123,-23.166 z"
           style="fill:#1ba7a7"
           id="path28"
           inkscape:connector-curvature="0" /><path
           d="m 415.582,435.505 c 0.697,-1.207 2.241,-1.621 3.449,-0.924 2.888,1.668 7.945,4.588 10.834,6.255 1.207,0.697 1.621,2.241 0.924,3.449 -6.079,10.528 -32.288,55.924 -38.367,66.452 -0.697,1.208 -2.241,1.621 -3.448,0.924 -2.889,-1.667 -7.946,-4.587 -10.834,-6.255 -1.208,-0.697 -1.622,-2.241 -0.924,-3.448 6.078,-10.529 32.287,-55.925 38.366,-66.453 z"
           style="fill:#1ba7a7"
           id="path30"
           inkscape:connector-curvature="0" /><path
           d="m 392.06,386.862 c 0.335,-0.58 0.886,-1.003 1.533,-1.176 0.647,-0.173 1.336,-0.083 1.916,0.252 2.888,1.668 7.945,4.588 10.834,6.255 0.579,0.335 1.003,0.886 1.176,1.533 0.173,0.647 0.082,1.336 -0.252,1.916 -5.155,8.929 -24.582,42.576 -29.737,51.505 -0.335,0.58 -0.886,1.003 -1.533,1.176 -0.646,0.174 -1.336,0.083 -1.915,-0.252 -2.889,-1.667 -7.946,-4.588 -10.834,-6.255 -0.58,-0.335 -1.003,-0.886 -1.177,-1.533 -0.173,-0.647 -0.082,-1.336 0.252,-1.916 5.156,-8.929 24.582,-42.576 29.737,-51.505 z"
           style="fill:#1ba7a7"
           id="path32"
           inkscape:connector-curvature="0" /><path
           d="m 368.098,344.321 c 0.697,-1.208 2.241,-1.621 3.449,-0.924 2.888,1.667 7.946,4.587 10.834,6.255 1.207,0.697 1.621,2.241 0.924,3.448 -4.366,7.563 -18.799,32.562 -23.165,40.124 -0.698,1.208 -2.242,1.621 -3.449,0.924 -2.888,-1.667 -7.946,-4.587 -10.834,-6.255 -1.208,-0.697 -1.621,-2.241 -0.924,-3.448 4.366,-7.563 18.799,-32.562 23.165,-40.124 z"
           style="fill:#1ba7a7"
           id="path34"
           inkscape:connector-curvature="0" /></g></g></g></svg>
