<?xml version="1.0" encoding="UTF-8" standalone="no"?>
<svg
   version="1.1"
   preserveAspectRatio="xMidYMid"
   viewBox="0 0 480 480"
   width="48"
   height="48"
   id="svg31"
   sodipodi:docname="criptext.svg"
   inkscape:version="1.2.2 (b0a8486541, 2022-12-01)"
   xmlns:inkscape="http://www.inkscape.org/namespaces/inkscape"
   xmlns:sodipodi="http://sodipodi.sourceforge.net/DTD/sodipodi-0.dtd"
   xmlns:xlink="http://www.w3.org/1999/xlink"
   xmlns="http://www.w3.org/2000/svg"
   xmlns:svg="http://www.w3.org/2000/svg"
   xmlns:rdf="http://www.w3.org/1999/02/22-rdf-syntax-ns#"
   xmlns:cc="http://creativecommons.org/ns#"
   xmlns:dc="http://purl.org/dc/elements/1.1/">
  <metadata
     id="metadata35">
    <rdf:RDF>
      <cc:Work
         rdf:about="">
        <dc:format>image/svg+xml</dc:format>
        <dc:type
           rdf:resource="http://purl.org/dc/dcmitype/StillImage" />
      </cc:Work>
    </rdf:RDF>
  </metadata>
  <sodipodi:namedview
     pagecolor="#ffffff"
     bordercolor="#666666"
     borderopacity="1"
     objecttolerance="10"
     gridtolerance="10"
     guidetolerance="10"
     inkscape:pageopacity="0"
     inkscape:pageshadow="2"
     inkscape:window-width="1280"
     inkscape:window-height="755"
     id="namedview33"
     showgrid="false"
     inkscape:zoom="3.6875"
     inkscape:cx="28.474576"
     inkscape:cy="32"
     inkscape:window-x="0"
     inkscape:window-y="0"
     inkscape:window-maximized="1"
     inkscape:current-layer="svg31"
     inkscape:showpageshadow="2"
     inkscape:pagecheckerboard="0"
     inkscape:deskcolor="#d1d1d1" />
  <defs
     id="defs5">
    <path
       d="m 62.05,259.56 c 0,-108.77 123.29,-196.95 275.37,-196.95 152.09,0 275.37,88.17 275.37,196.95 0,108.78 -123.27,196.95 -275.36,196.95 -36.94,0 -72.18,-5.2 -104.37,-14.62 -6.8,3.48 -43.02,23.17 -108.66,59.07 l 12.47,-95.78 C 86.99,345.38 62.05,296.84 62.05,259.56 Z"
       id="e1AOxQiwWJ" />
    <path
       d="m 291.44,162.74 c 0,-23.22 22.65,-42.11 50.48,-42.11 27.83,0 50.47,18.89 50.47,42.11 0,2.15 0,19.37 0,21.52 0.12,0.04 0.23,0.08 0.34,0.12 7.21,2.54 14.07,5.6 20.55,9.13 0,-3.08 0,-27.69 0,-30.77 0,-32.83 -32.01,-59.54 -71.36,-59.54 -39.35,0 -71.36,26.71 -71.36,59.54 0,3.08 0,27.69 0,30.77 6.48,-3.53 13.34,-6.59 20.54,-9.13 0.11,-0.04 0.23,-0.08 0.34,-0.12 0,-4.3 0,-19.37 0,-21.52 z"
       id="aUisw1yNG" />
    <path
       d="m 350.38,193.78 4.16,0.32 4.12,0.46 4.05,0.57 4.01,0.7 3.94,0.82 3.88,0.94 3.81,1.04 3.74,1.16 3.66,1.27 3.59,1.37 3.51,1.48 3.43,1.58 3.33,1.67 3.25,1.77 3.16,1.87 3.06,1.95 2.95,2.05 2.86,2.12 2.74,2.22 2.64,2.29 2.53,2.36 2.4,2.45 2.29,2.52 2.16,2.58 2.04,2.65 1.9,2.72 1.78,2.78 1.63,2.84 1.5,2.9 1.35,2.95 1.21,3.01 1.05,3.05 0.91,3.1 0.74,3.14 0.59,3.19 0.42,3.22 0.26,3.26 0.08,3.3 -0.08,3.29 -0.26,3.27 -0.42,3.22 -0.59,3.19 -0.74,3.14 -0.91,3.1 -1.05,3.05 -1.21,3.01 -1.35,2.95 -1.5,2.9 -1.63,2.84 -1.78,2.78 -1.9,2.71 -2.04,2.66 -2.16,2.58 -2.29,2.52 -2.4,2.44 -2.53,2.37 -2.64,2.29 -2.74,2.21 -2.86,2.13 -2.95,2.05 -3.06,1.95 -3.16,1.86 -3.25,1.78 -3.33,1.67 -3.43,1.58 -3.51,1.48 -3.59,1.37 -3.66,1.27 -3.74,1.16 -3.81,1.04 -3.88,0.94 -3.94,0.82 -4.01,0.69 -4.05,0.58 -4.12,0.46 -4.16,0.32 -4.21,0.2 -4.25,0.07 -4.26,-0.07 -4.21,-0.2 -4.16,-0.32 -4.11,-0.46 -4.06,-0.58 -4,-0.69 -3.94,-0.82 -3.88,-0.94 -3.81,-1.04 -3.74,-1.16 -3.67,-1.27 -3.59,-1.37 -3.51,-1.48 -3.42,-1.58 -3.34,-1.67 -3.25,-1.78 -3.15,-1.86 -3.06,-1.95 -2.96,-2.05 -2.85,-2.13 -2.75,-2.21 -2.64,-2.29 -2.52,-2.37 -2.41,-2.44 -2.28,-2.52 -2.17,-2.58 -2.03,-2.66 -1.91,-2.71 -1.77,-2.78 -1.64,-2.84 -1.49,-2.9 -1.36,-2.95 -1.2,-3.01 -1.06,-3.05 -0.9,-3.1 -0.75,-3.14 -0.58,-3.19 -0.43,-3.22 -0.25,-3.27 -0.09,-3.29 0.09,-3.3 0.25,-3.26 0.43,-3.22 0.58,-3.19 0.75,-3.14 0.9,-3.1 1.06,-3.05 1.2,-3.01 1.36,-2.95 1.49,-2.9 1.64,-2.84 1.77,-2.78 1.91,-2.72 2.03,-2.65 2.17,-2.58 2.28,-2.52 2.41,-2.45 2.52,-2.36 2.64,-2.29 2.75,-2.22 2.85,-2.12 2.96,-2.05 3.06,-1.95 3.15,-1.87 3.25,-1.77 3.34,-1.67 3.42,-1.58 3.51,-1.48 3.59,-1.37 3.67,-1.27 3.74,-1.16 3.81,-1.04 3.88,-0.94 3.94,-0.82 4,-0.7 4.06,-0.57 4.11,-0.46 4.16,-0.32 4.21,-0.2 4.26,-0.07 4.25,0.07 z m -10.55,50.02 -1.02,0.09 -1.01,0.12 -1,0.16 -0.98,0.19 -0.96,0.22 -0.94,0.25 -0.93,0.29 -0.9,0.31 -0.89,0.35 -0.86,0.37 -0.83,0.4 -0.82,0.42 -0.79,0.45 -0.76,0.48 -0.73,0.5 -0.71,0.53 -0.68,0.54 -0.64,0.57 -0.62,0.59 -0.58,0.61 -0.55,0.63 -0.51,0.65 -0.48,0.67 -0.45,0.68 -0.4,0.7 -0.37,0.72 -0.33,0.73 -0.29,0.74 -0.24,0.76 -0.21,0.77 -0.16,0.79 -0.11,0.79 -0.07,0.8 -0.02,0.82 0.01,0.59 0.03,0.58 0.06,0.58 0.09,0.57 0.11,0.57 0.13,0.56 0.15,0.55 0.18,0.55 0.19,0.54 0.22,0.54 0.24,0.53 0.26,0.51 0.28,0.52 0.3,0.5 0.32,0.49 0.34,0.49 0.36,0.47 0.37,0.47 0.4,0.46 0.41,0.44 0.42,0.44 0.45,0.43 0.46,0.41 0.48,0.41 0.49,0.39 0.51,0.38 0.52,0.36 0.54,0.36 0.55,0.34 0.57,0.33 0.58,0.32 0.59,0.3 0.6,0.29 0.62,0.27 0.63,0.26 0.64,0.25 v 27.18 h 19.66 v -27.18 l 0.64,-0.25 0.62,-0.26 0.62,-0.27 0.61,-0.29 0.59,-0.3 0.58,-0.32 0.56,-0.33 0.55,-0.34 0.54,-0.35 0.52,-0.37 0.51,-0.38 0.5,-0.39 0.47,-0.41 0.46,-0.41 0.45,-0.43 0.43,-0.43 0.41,-0.45 0.39,-0.46 0.38,-0.47 0.36,-0.47 0.33,-0.49 0.32,-0.49 0.3,-0.5 0.28,-0.52 0.26,-0.51 0.24,-0.53 0.22,-0.54 0.2,-0.54 0.17,-0.55 0.16,-0.55 0.13,-0.56 0.11,-0.57 0.08,-0.57 0.06,-0.58 0.04,-0.58 0.01,-0.59 -0.02,-0.82 -0.07,-0.8 -0.12,-0.79 -0.16,-0.79 -0.2,-0.77 -0.25,-0.76 -0.29,-0.74 -0.33,-0.73 -0.36,-0.72 -0.41,-0.7 -0.44,-0.68 -0.48,-0.67 -0.52,-0.65 -0.55,-0.63 -0.58,-0.61 -0.61,-0.59 -0.65,-0.57 -0.68,-0.54 -0.7,-0.53 -0.74,-0.5 -0.76,-0.48 -0.79,-0.45 -0.81,-0.42 -0.84,-0.4 -0.86,-0.37 -0.88,-0.35 -0.91,-0.31 -0.92,-0.29 -0.94,-0.25 -0.97,-0.22 -0.98,-0.19 -0.99,-0.16 -1.01,-0.12 -1.03,-0.09 -1.03,-0.06 -1.05,-0.02 -1.05,0.02 z"
       id="i10jTlqN0r" />
  </defs>
  <g
     id="g29"
     transform="matrix(0.79892508,0,0,0.79892508,-29.5733,14.874896)">
    <g
       id="g27">
      <g
         id="g9">
        <use
           xlink:href="#e1AOxQiwWJ"
           id="use7"
           style="opacity:1;fill:#6e93a2;fill-opacity:1"
           x="0"
           y="0"
           width="100%"
           height="100%" />
      </g>
      <g
         id="g17">
        <use
           xlink:href="#aUisw1yNG"
           id="use11"
           style="opacity:1;fill:#ffffff;fill-opacity:1"
           x="0"
           y="0"
           width="100%"
           height="100%" />
        <g
           id="g15">
          <use
             xlink:href="#aUisw1yNG"
             id="use13"
             style="opacity:1;fill-opacity:0;stroke:#000000;stroke-width:1;stroke-opacity:0"
             x="0"
             y="0"
             width="100%"
             height="100%" />
        </g>
      </g>
      <g
         id="g25">
        <use
           xlink:href="#i10jTlqN0r"
           id="use19"
           style="opacity:1;fill:#ffffff;fill-opacity:1"
           x="0"
           y="0"
           width="100%"
           height="100%" />
        <g
           id="g23">
          <use
             xlink:href="#i10jTlqN0r"
             id="use21"
             style="opacity:1;fill-opacity:0;stroke:#000000;stroke-width:1;stroke-opacity:0"
             x="0"
             y="0"
             width="100%"
             height="100%" />
        </g>
      </g>
    </g>
  </g>
</svg>
