<?xml version="1.0" encoding="UTF-8" standalone="no"?>
<svg
   inkscape:export-ydpi="23.177401"
   inkscape:export-xdpi="23.177401"
   inkscape:export-filename="/home/tio/Downloads/gauth.png"
   sodipodi:docname="JIRAFEAU.svg"
   inkscape:version="1.2.2 (b0a8486541, 2022-12-01)"
   version="1.1"
   id="svg2"
   height="48"
   width="48"
   xmlns:inkscape="http://www.inkscape.org/namespaces/inkscape"
   xmlns:sodipodi="http://sodipodi.sourceforge.net/DTD/sodipodi-0.dtd"
   xmlns:xlink="http://www.w3.org/1999/xlink"
   xmlns="http://www.w3.org/2000/svg"
   xmlns:svg="http://www.w3.org/2000/svg"
   xmlns:rdf="http://www.w3.org/1999/02/22-rdf-syntax-ns#"
   xmlns:cc="http://creativecommons.org/ns#"
   xmlns:dc="http://purl.org/dc/elements/1.1/">
  <defs
     id="defs4">
    <linearGradient
       id="linearGradient1739"
       inkscape:swatch="solid">
      <stop
         id="stop1737"
         offset="0"
         style="stop-color:#b4b4b4;stop-opacity:1;" />
    </linearGradient>
    <linearGradient
       id="linearGradient3790">
      <stop
         id="stop3792"
         offset="0"
         style="stop-color:#a9a9a9;stop-opacity:1;" />
      <stop
         id="stop3794"
         offset="1"
         style="stop-color:#000000;stop-opacity:1;" />
    </linearGradient>
    <linearGradient
       gradientTransform="matrix(1.2227304,0,0,0.89945099,-289.31433,113.40259)"
       gradientUnits="userSpaceOnUse"
       y2="254.35953"
       x2="255.84358"
       y1="354.42426"
       x1="186.74416"
       id="linearGradient3912"
       xlink:href="#linearGradient3790"
       inkscape:collect="always" />
    <linearGradient
       inkscape:collect="always"
       id="linearGradient7636">
      <stop
         style="stop-color:#ffab00;stop-opacity:1"
         offset="0"
         id="stop7664" />
      <stop
         id="stop4188"
         offset="0.20623536"
         style="stop-color:#ffa500;stop-opacity:1" />
      <stop
         style="stop-color:#ffab00;stop-opacity:1"
         offset="0.2469174"
         id="stop4190" />
      <stop
         style="stop-color:#ff8800;stop-opacity:1"
         offset="1"
         id="stop7666" />
    </linearGradient>
    <linearGradient
       id="linearGradient7620"
       inkscape:swatch="solid">
      <stop
         style="stop-color:#fcff00;stop-opacity:1;"
         offset="0"
         id="stop7622" />
    </linearGradient>
    <radialGradient
       xlink:href="#linearGradient7636"
       id="radialGradient7642"
       cx="250"
       cy="250.00003"
       fx="250"
       fy="250.00003"
       r="229.85291"
       gradientTransform="matrix(1.3983125,1.4831815e-7,-1.507182e-7,1.4209396,-99.578086,-105.23497)"
       gradientUnits="userSpaceOnUse"
       spreadMethod="pad" />
    <filter
       style="color-interpolation-filters:sRGB"
       id="filter9316">
      <feGaussianBlur
         result="result1"
         stdDeviation="3"
         id="feGaussianBlur9318" />
      <feBlend
         in2="result1"
         result="result5"
         mode="multiply"
         in="result1"
         id="feBlend9320" />
      <feGaussianBlur
         in="result5"
         result="result6"
         stdDeviation="1"
         id="feGaussianBlur9322" />
      <feComposite
         result="result8"
         in2="result5"
         in="result6"
         operator="xor"
         id="feComposite9324" />
      <feComposite
         in="result6"
         result="fbSourceGraphic"
         operator="xor"
         in2="result8"
         id="feComposite9326" />
      <feSpecularLighting
         in="fbSourceGraphic"
         result="result1"
         lighting-color="#ffffff"
         surfaceScale="2"
         specularConstant="2.20000005"
         specularExponent="55"
         id="feSpecularLighting9328">
        <fePointLight
           x="-5000"
           y="-10000"
           z="20000"
           id="fePointLight9330" />
      </feSpecularLighting>
      <feComposite
         in2="fbSourceGraphic"
         in="result1"
         result="result2"
         operator="in"
         id="feComposite9332" />
      <feComposite
         in="fbSourceGraphic"
         result="result4"
         operator="arithmetic"
         k2="2"
         k3="1"
         in2="result2"
         id="feComposite9334"
         k1="0"
         k4="0" />
      <feComposite
         in2="result4"
         in="result4"
         operator="in"
         result="result91"
         id="feComposite9336" />
      <feBlend
         mode="darken"
         in2="result91"
         id="feBlend9338" />
    </filter>
    <pattern
       patternUnits="userSpaceOnUse"
       width="150.00683"
       height="75.64963"
       patternTransform="translate(-105.5802,590.28444)"
       id="pattern9832">
      <rect
         y="2.7309999"
         x="2.7309999"
         height="70.18763"
         width="144.54483"
         id="rect9830"
         style="opacity:1;fill:#ebee00;fill-opacity:0.69724767;fill-rule:nonzero;stroke:#000000;stroke-width:5.46199989;stroke-linecap:round;stroke-linejoin:round;stroke-miterlimit:4;stroke-dasharray:none;stroke-dashoffset:0;stroke-opacity:1" />
    </pattern>
    <filter
       id="filter9316-8"
       style="color-interpolation-filters:sRGB">
      <feGaussianBlur
         id="feGaussianBlur9318-0"
         stdDeviation="3"
         result="result1" />
      <feBlend
         id="feBlend9320-6"
         in="result1"
         mode="multiply"
         result="result5"
         in2="result1" />
      <feGaussianBlur
         id="feGaussianBlur9322-8"
         stdDeviation="1"
         result="result6"
         in="result5" />
      <feComposite
         id="feComposite9324-0"
         operator="xor"
         in="result6"
         in2="result5"
         result="result8" />
      <feComposite
         id="feComposite9326-9"
         in2="result8"
         operator="xor"
         result="fbSourceGraphic"
         in="result6" />
      <feSpecularLighting
         id="feSpecularLighting9328-2"
         specularExponent="55"
         specularConstant="2.20000005"
         surfaceScale="2"
         lighting-color="#ffffff"
         result="result1"
         in="fbSourceGraphic">
        <fePointLight
           id="fePointLight9330-6"
           z="20000"
           y="-10000"
           x="-5000" />
      </feSpecularLighting>
      <feComposite
         id="feComposite9332-7"
         operator="in"
         result="result2"
         in="result1"
         in2="fbSourceGraphic" />
      <feComposite
         id="feComposite9334-8"
         in2="result2"
         k3="1"
         k2="2"
         operator="arithmetic"
         result="result4"
         in="fbSourceGraphic"
         k1="0"
         k4="0" />
      <feComposite
         id="feComposite9336-2"
         result="result91"
         operator="in"
         in="result4"
         in2="result4" />
      <feBlend
         id="feBlend9338-7"
         in2="result91"
         mode="darken" />
    </filter>
    <pattern
       id="pattern9832-3"
       patternTransform="translate(-105.5802,590.28444)"
       height="75.64963"
       width="150.00683"
       patternUnits="userSpaceOnUse">
      <rect
         style="opacity:1;fill:#ebee00;fill-opacity:0.69724767;fill-rule:nonzero;stroke:#000000;stroke-width:5.46199989;stroke-linecap:round;stroke-linejoin:round;stroke-miterlimit:4;stroke-dasharray:none;stroke-dashoffset:0;stroke-opacity:1"
         id="rect9830-3"
         width="144.54483"
         height="70.18763"
         x="2.7309999"
         y="2.7309999" />
    </pattern>
    <filter
       id="filter2866"
       inkscape:label="Invert"
       style="color-interpolation-filters:sRGB">
      <feColorMatrix
         id="feColorMatrix2864"
         result="color2"
         values="-1 0 0 0 1 0 -1 0 0 1 0 0 -1 0 1 0.21 0.72 0.07 1 0 " />
    </filter>
    <linearGradient
       id="SVGID_5_"
       gradientUnits="userSpaceOnUse"
       x1="364.61819"
       y1="323.15329"
       x2="364.61819"
       y2="305.8201">
      <stop
         offset="0"
         style="stop-color:#1B75BC"
         id="stop702" />
      <stop
         offset="1"
         style="stop-color:#00AEEF"
         id="stop704" />
      <stop
         offset="1"
         style="stop-color:#000000"
         id="stop706" />
    </linearGradient>
    <linearGradient
       id="SVGID_5_-5"
       gradientUnits="userSpaceOnUse"
       x1="364.61819"
       y1="323.15329"
       x2="364.61819"
       y2="305.8201">
      <stop
         offset="0"
         style="stop-color:#1B75BC"
         id="stop702-6" />
      <stop
         offset="1"
         style="stop-color:#00AEEF"
         id="stop704-2" />
      <stop
         offset="1"
         style="stop-color:#000000"
         id="stop706-9" />
    </linearGradient>
  </defs>
  <sodipodi:namedview
     inkscape:document-rotation="0"
     fit-margin-bottom="-6"
     fit-margin-right="-24"
     fit-margin-left="0"
     fit-margin-top="0"
     inkscape:guide-bbox="true"
     showguides="true"
     inkscape:window-maximized="1"
     inkscape:window-y="0"
     inkscape:window-x="0"
     inkscape:window-height="755"
     inkscape:window-width="1280"
     showgrid="false"
     inkscape:current-layer="layer1"
     inkscape:document-units="px"
     inkscape:cy="174.75639"
     inkscape:cx="-11.111678"
     inkscape:zoom="0.98994948"
     inkscape:pageshadow="2"
     inkscape:pageopacity="0.0"
     borderopacity="1.0"
     bordercolor="#666666"
     pagecolor="#ffffff"
     id="base"
     inkscape:pagecheckerboard="0"
     inkscape:showpageshadow="2"
     inkscape:deskcolor="#d1d1d1" />
  <metadata
     id="metadata7">
    <rdf:RDF>
      <cc:Work
         rdf:about="">
        <dc:format>image/svg+xml</dc:format>
        <dc:type
           rdf:resource="http://purl.org/dc/dcmitype/StillImage" />
      </cc:Work>
    </rdf:RDF>
  </metadata>
  <g
     style="display:inline"
     transform="translate(-61.719803,-34.870671)"
     id="layer1"
     inkscape:groupmode="layer"
     inkscape:label="Layer 1">
    <path
       r="107.58125"
       cy="391.12405"
       cx="-407.99075"
       id="path2987"
       style="fill:#f9f9f9;fill-opacity:1;fill-rule:nonzero;stroke:none"
       d="" />
    <path
       r="78.034286"
       cy="390.87152"
       cx="-408.24332"
       id="path3757"
       style="fill:#ececec;fill-opacity:1;fill-rule:nonzero;stroke:none;stroke-width:0.768657"
       d="" />
    <g
       id="g3756"
       transform="matrix(0.13899302,0,0,0.13899302,54.052748,30.814866)">
      <g
         transform="translate(-13.938856,-27.425559)"
         id="g2918">
        <g
           transform="matrix(1.8589097,0,0,1.8589097,-188.9887,-235.97041)"
           id="g2968">
          <g
             id="XMLID_7_"
             transform="matrix(0.53794975,0,0,0.53794975,20.317936,68.476163)">
            <g
               id="g729" />
            <g
               transform="matrix(0.91425715,0,0,0.91425715,155.82657,-293.5609)"
               id="g4673">
              <path
                 inkscape:connector-curvature="0"
                 id="path4473-2"
                 d="M 142.46798,822.50729 H 353.94285"
                 style="fill:none;fill-rule:evenodd;stroke:none;stroke-width:5.17596;stroke-linecap:butt;stroke-linejoin:miter;stroke-miterlimit:4;stroke-dasharray:none;stroke-opacity:1" />
              <g
                 style="display:inline"
                 transform="matrix(1.0937842,0,0,1.0937842,-168.25307,325.46739)"
                 id="XMLID_7_-36">
                <g
                   id="g729-7" />
                <g
                   id="g4673-5"
                   transform="matrix(0.91425715,0,0,0.91425715,155.82657,-293.5609)">
                  <path
                     style="fill:none;fill-rule:evenodd;stroke:none;stroke-width:5.17596;stroke-linecap:butt;stroke-linejoin:miter;stroke-miterlimit:4;stroke-dasharray:none;stroke-opacity:1"
                     d="M 142.46798,822.50729 H 353.94285"
                     id="path4473-2-3"
                     inkscape:connector-curvature="0" />
                  <g
                     id="XMLID_7_-3"
                     transform="matrix(1.1862578,0,0,1.1862578,-208.21176,285.26301)"
                     style="display:inline">
                    <g
                       id="g729-6" />
                    <g
                       transform="matrix(0.91425715,0,0,0.91425715,155.82657,-293.5609)"
                       id="g4673-7">
                      <circle
                         r="154.16086"
                         cy="690.92896"
                         cx="258.70734"
                         style="fill:#bf616a;fill-opacity:1;stroke:#a9454e;stroke-width:10.9378;stroke-miterlimit:4;stroke-dasharray:none;stroke-dashoffset:0;stroke-opacity:1"
                         id="path3759" />
                      <path
                         inkscape:connector-curvature="0"
                         id="path4473-2-5"
                         d="M 142.46798,822.50729 H 353.94285"
                         style="fill:none;fill-rule:evenodd;stroke:none;stroke-width:5.17596;stroke-linecap:butt;stroke-linejoin:miter;stroke-miterlimit:4;stroke-dasharray:none;stroke-opacity:1" />
                    </g>
                  </g>
                </g>
              </g>
            </g>
          </g>
        </g>
      </g>
      <g
         transform="matrix(1.4560898,0,0,1.4560898,73.532562,131.32989)"
         id="g2824"
         style="overflow:visible;opacity:0.705224;fill:#f2f2f2">
        <path
           sodipodi:nodetypes="cssscsssssssssssssscsscssscsssssscccc"
           id="path1228"
           d="m 35.750227,120.65491 c -2.122004,-2.16105 -2.435613,-2.09793 -4.91531,-5.67687 0,0 10.464264,-21.194149 14.695039,-31.553716 6.722293,-16.460338 12.792114,-30.7162 17.9281,-42.106771 l 2.974119,-6.595994 -0.383797,-1.103826 c -1.182445,-3.40084 -1.522941,-8.048728 -0.889504,-12.142108 1.259732,-8.140604 5.479472,-14.5594013 9.011955,-13.7084088 2.98394,0.7188447 7.064168,4.6649448 10.940557,10.5808978 1.614496,2.463983 1.852888,2.596579 3.460505,1.924872 2.670527,-1.115812 5.547953,-5.514721 7.47664,-11.4300536 1.359054,-4.1681913 1.771714,-6.6128943 1.966819,-11.6515143 0.203822,-5.263879 0.364745,-5.871408 1.929234,-7.2831141 1.323376,-1.19414 2.804786,-1.657352 3.698456,-1.156433 1.74428,0.9777 2.13409,4.8137401 1.11934,11.01514412 -0.73166,4.47141018 -0.33844,8.08238488 1.9639,18.03462488 1.54289,6.669378 2.03699,7.793563 4.6647,10.613263 2.27764,2.444052 4.85043,4.324895 8.39786,6.139279 3.81531,1.951419 5.94597,3.78085 8.62175,7.402868 2.75506,3.72936 6.48348,8.120878 18.53254,21.828684 15.8208,17.99872 16.43228,18.794604 17.8125,23.183684 0.67795,2.155903 0.90071,6.659623 0.43677,8.830616 l -0.31453,1.471771 -1.96235,0.657848 c -3.79551,1.272355 -9.67112,1.525124 -12.87758,0.553997 -3.14458,-0.952396 -6.69396,-3.315285 -9.54993,-6.357521 l -1.33214,-1.419026 -1.97935,-0.216841 c -7.74964,-0.849004 -15.49721,-3.02102 -24.6882,-6.92128 -10.95164,-4.647424 -14.584172,-5.291339 -20.629887,-3.656942 -1.575788,0.425996 -3.286709,1.042218 -3.802073,1.369394 -1.402976,0.890673 -3.307188,3.029858 -4.335572,4.870588 -1.746568,3.126218 -4.654687,13.06163 -5.821581,19.889088 L 75.126854,143.84286 63.8417,139.5672 c -2.546147,-1.09373 -6.121322,-2.86125 -16.06112,-8.96685 -5.742274,-4.00937 -7.652392,-6.05298 -12.030353,-9.94544 z"
           style="fill:#ffffff;fill-opacity:1;fill-rule:evenodd;stroke:none;stroke-width:0.812172;stroke-linecap:square;stroke-miterlimit:4;stroke-dasharray:none;stroke-opacity:1;paint-order:stroke markers fill" />
      </g>
    </g>
  </g>
</svg>
