<?xml version="1.0" encoding="UTF-8" standalone="no"?>
<svg
   version="1.1"
   preserveAspectRatio="xMidYMid"
   viewBox="0 0 480 480"
   width="48"
   height="48"
   id="svg67"
   sodipodi:docname="logseq.svg"
   inkscape:version="1.2.2 (b0a8486541, 2022-12-01)"
   xmlns:inkscape="http://www.inkscape.org/namespaces/inkscape"
   xmlns:sodipodi="http://sodipodi.sourceforge.net/DTD/sodipodi-0.dtd"
   xmlns="http://www.w3.org/2000/svg"
   xmlns:svg="http://www.w3.org/2000/svg">
  <sodipodi:namedview
     id="namedview69"
     pagecolor="#ffffff"
     bordercolor="#666666"
     borderopacity="1.0"
     inkscape:pageshadow="2"
     inkscape:pageopacity="0.0"
     inkscape:pagecheckerboard="0"
     showgrid="false"
     inkscape:zoom="5.3182881"
     inkscape:cx="9.7775825"
     inkscape:cy="26.700321"
     inkscape:window-width="1280"
     inkscape:window-height="755"
     inkscape:window-x="0"
     inkscape:window-y="0"
     inkscape:window-maximized="1"
     inkscape:current-layer="g63"
     inkscape:showpageshadow="2"
     inkscape:deskcolor="#d1d1d1" />
  <defs
     id="defs9">
    <path
       d="M 600.43,320 C 600.43,478.19 474.77,606.61 320,606.61 165.23,606.61 39.57,478.19 39.57,320 39.57,161.81 165.23,33.39 320,33.39 474.77,33.39 600.43,161.81 600.43,320 Z"
       id="c5YPSt4xXX" />
    <path
       d="m 248.23,178.71 c 0,0 -36.47,0 -53.51,28.08 -15.82,26.09 -33.38,36.48 -31.62,62.15 1.75,25.66 37.63,30.33 48.16,42.77 -0.05,9.07 -0.47,81.64 -0.53,90.71 -0.27,46.95 42.6,85.13 95.59,85.13 52.79,0 95.59,-37.92 95.59,-84.7 0,-2.47 0,-22.31 0,-24.79 0,-16.11 14.74,-29.17 32.92,-29.17 20.16,-0.45 68.56,1.34 75.61,-44.46 4.61,-29.86 -14.04,-46.13 -27.58,-53.84 -3.85,-2.19 -8.56,1.39 -6.66,5.08 8.84,17.21 19.82,48.76 -18.68,48.76 -3.49,0 -31.39,0 -34.87,0 -43.82,0 -79.43,31.33 -79.74,70.16 -0.02,3.03 -0.22,27.25 -0.24,30.28 0,13.96 -12.78,25.28 -28.53,25.28 -15.71,0 -28.47,-11.25 -28.54,-25.17 -0.04,-9.32 -0.36,-83.94 -0.4,-93.26 10.53,-12.45 46.41,-17.12 48.16,-42.78 1.76,-25.67 -15.79,-36.06 -31.62,-62.14 -17.04,-28.09 -53.51,-28.09 -53.51,-28.09"
       id="b4uSIkvWzl" />
    <path
       d="m 232.21,262.27 c 0,2.89 0,25.99 0,28.88 0,2.11 2.78,3.27 4.62,1.92 0.67,-0.48 3.99,-2.91 9.98,-7.29 5.98,4.38 9.31,6.81 9.97,7.29 1.84,1.35 4.62,0.19 4.62,-1.93 0,-2.88 0,-25.98 0,-28.87 -3.37,-2.5 -7.67,-4.48 -14.6,-4.48 -6.92,0 -11.22,1.98 -14.59,4.48 z"
       id="cRnlAcH1o" />
    <path
       d="m 232.21,258.9 c 0,1.68 0,15.14 0,16.82 3.37,-2.5 7.67,-4.48 14.59,-4.48 6.92,0 11.23,1.98 14.6,4.48 0,-1.68 0,-15.14 0,-16.82 -3.37,-2.51 -7.67,-4.49 -14.6,-4.49 -6.92,0 -11.22,1.98 -14.59,4.49 z"
       id="e4yhiHsrqJ" />
    <path
       d="m 202.82,236.44 c 0,6.57 4.67,11.71 10.64,11.71 5.97,0 10.65,-5.15 10.65,-11.71 0,-6.56 -4.68,-11.7 -10.65,-11.7 -5.97,0 -10.64,5.14 -10.64,11.7 z"
       id="c4LgQRNS9k" />
    <path
       d="m 272.35,236.44 c 0,6.57 4.68,11.71 10.64,11.71 5.97,0 10.65,-5.15 10.65,-11.71 0,-6.56 -4.68,-11.7 -10.65,-11.7 -5.96,0 -10.64,5.14 -10.64,11.7 z"
       id="f8ACvIFWa" />
    <path
       d="m 261.86,264.25 c -4,-3.77 -7.16,-6.75 -15.06,-6.75 -7.9,0 -11.06,2.98 -15.05,6.75 -3.8,3.58 -8.53,8.04 -17.3,8.04 -14.61,0 -21.82,-9.5 -22.12,-9.9 -1.6,-2.16 -0.92,-5.05 1.51,-6.47 2.44,-1.42 5.71,-0.82 7.31,1.34 0.15,0.19 4.51,5.68 13.3,5.68 4.03,0 5.96,-1.66 9.6,-5.09 4.34,-4.1 10.29,-9.7 22.75,-9.7 12.47,0 18.41,5.6 22.75,9.7 3.64,3.43 5.57,5.09 9.6,5.09 8.79,0 13.15,-5.49 13.34,-5.72 1.6,-2.16 4.85,-2.74 7.29,-1.32 2.43,1.41 3.09,4.33 1.49,6.49 -0.3,0.4 -7.5,9.9 -22.12,9.9 -8.77,0 -13.49,-4.46 -17.29,-8.04 z"
       id="crSPfVlGA" />
  </defs>
  <g
     id="g65">
    <g
       id="g63">
      <g
         id="g7044"
         transform="matrix(0.7845095,0,0,0.76759359,-11.04304,-5.6299488)">
        <g
           id="g13">
          <path
             d="M 600.43,320 C 600.43,478.19 474.77,606.61 320,606.61 165.23,606.61 39.57,478.19 39.57,320 39.57,161.81 165.23,33.39 320,33.39 474.77,33.39 600.43,161.81 600.43,320 Z"
             id="use11"
             style="fill:#4c566a;fill-opacity:1" />
        </g>
        <path
           d="m 358.59938,176.19872 a 38.430373,59.982606 78.451 0 0 -23.14319,3.10292 38.430373,59.982606 78.451 0 0 -44.77449,51.83011 38.430373,59.982606 78.451 0 0 70.87237,20.99883 38.430373,59.982606 78.451 0 0 44.77449,-51.83008 38.430373,59.982606 78.451 0 0 -47.72918,-24.10174 z m -195.24485,9.96087 a 66.020395,51.691766 45 0 0 -31.01901,14.11123 66.020395,51.691766 45 0 0 13.60727,83.57046 66.020395,51.691766 45 0 0 82.74041,6.63073 66.020395,51.691766 45 0 0 -13.60726,-83.57052 66.020395,51.691766 45 0 0 -51.72141,-20.7518 z M 353.4411,294.78047 A 143.28629,108.69995 0 0 0 210.15483,403.48043 143.28629,108.69995 0 0 0 353.4411,512.18035 143.28629,108.69995 0 0 0 496.72738,403.48043 143.28629,108.69995 0 0 0 353.4411,294.78047 Z"
           id="path18"
           style="fill:#f3fafa;fill-opacity:1;stroke-width:9.88181" />
      </g>
    </g>
  </g>
</svg>
