<?xml version="1.0" encoding="UTF-8" standalone="no"?>
<svg
   version="1.1"
   preserveAspectRatio="xMidYMid"
   viewBox="0 0 480 480"
   width="48"
   height="48"
   id="svg22"
   sodipodi:docname="soulseek.svg"
   inkscape:version="1.2.2 (b0a8486541, 2022-12-01)"
   xmlns:inkscape="http://www.inkscape.org/namespaces/inkscape"
   xmlns:sodipodi="http://sodipodi.sourceforge.net/DTD/sodipodi-0.dtd"
   xmlns:xlink="http://www.w3.org/1999/xlink"
   xmlns="http://www.w3.org/2000/svg"
   xmlns:svg="http://www.w3.org/2000/svg"
   xmlns:rdf="http://www.w3.org/1999/02/22-rdf-syntax-ns#"
   xmlns:cc="http://creativecommons.org/ns#"
   xmlns:dc="http://purl.org/dc/elements/1.1/">
  <metadata
     id="metadata26">
    <rdf:RDF>
      <cc:Work
         rdf:about="">
        <dc:format>image/svg+xml</dc:format>
        <dc:type
           rdf:resource="http://purl.org/dc/dcmitype/StillImage" />
      </cc:Work>
    </rdf:RDF>
  </metadata>
  <sodipodi:namedview
     pagecolor="#ffffff"
     bordercolor="#666666"
     borderopacity="1"
     objecttolerance="10"
     gridtolerance="10"
     guidetolerance="10"
     inkscape:pageopacity="0"
     inkscape:pageshadow="2"
     inkscape:window-width="1280"
     inkscape:window-height="755"
     id="namedview24"
     showgrid="false"
     inkscape:zoom="3.6875"
     inkscape:cx="35.79661"
     inkscape:cy="59.389831"
     inkscape:window-x="0"
     inkscape:window-y="0"
     inkscape:window-maximized="1"
     inkscape:current-layer="svg22"
     inkscape:showpageshadow="2"
     inkscape:pagecheckerboard="0"
     inkscape:deskcolor="#d1d1d1" />
  <defs
     id="defs4">
    <path
       d="m 616.72,321.71 c 0,164.39 -132.7,297.85 -296.15,297.85 -163.45,0 -296.15,-133.46 -296.15,-297.85 0,-164.39 132.7,-297.86 296.15,-297.86 163.45,0 296.15,133.47 296.15,297.86 z"
       id="a1DbOXU8Ob" />
    <path
       d="m 445.69,164.03 c -15.36,26.13 -27.63,56.18 -38.29,87.96 -4.09,12.11 -7.95,24.15 -12.15,36.75 -0.1,0.48 -0.33,0.56 -0.33,0.56 -0.37,-0.33 -0.37,-0.33 -0.74,-0.66 -0.37,-0.33 -0.97,-0.58 -1.34,-0.91 -7.21,-6.17 -14.8,-12.67 -22.38,-19.16 -0.37,-0.33 -0.84,-0.18 -0.71,0.23 -0.04,2.26 0.76,4.69 1.89,6.56 3.66,6.44 7.67,12.31 11.57,18.67 2.5,3.67 5.1,6.86 7.37,10.6 0.5,0.74 1.03,2.36 0.82,3.33 -6.29,27.65 -12.58,55.3 -18.87,82.94 -0.61,2.9 -1.79,3.28 -3.83,2.6 -6.96,-2.21 -13.78,-7.16 -20.4,-13.07 -9.08,-8.71 -18.17,-17.4 -27.15,-26.59 -1.97,-2.05 -3.87,-5.46 -5.74,-8 -6.8,-11.24 -14.24,-20.48 -23.07,-25.22 -0.6,-0.25 -1.1,-0.99 -1.6,-1.72 -8.61,-12 -17.86,-21.99 -27.11,-31.99 -6.04,-6.55 -12.12,-13.99 -18.8,-18.54 -6.09,-4.29 -12.11,-6.81 -18.06,-10.7 -11.27,-6.64 -22.31,-13.35 -33.45,-19.59 -7.26,-3.91 -14.59,-6.45 -21.82,-9.47 -18.9,-7.73 -37.55,-14.65 -56.26,-20.2 -15,-4.52 -28.64,-4.1 -41.95,-1.09 -8.48,1.88 -16.84,4.16 -25.05,6.85 -0.24,0.08 -0.24,0.08 0.13,0.41 1.67,0.35 3.25,1.18 4.92,1.53 31.3,9.06 62.93,20.71 94.57,39.54 19.03,11.29 38.12,24.35 56.73,40.7 12.5,11.18 24.25,24.84 35.89,38.99 19.46,23.71 38.45,47.58 55.92,75.54 5.4,8.56 11.03,17.04 15.19,27.35 1.3,3.17 2.59,6.34 3.78,9.99 1.3,3.16 2.32,8.67 2.68,12.14 0.58,6.55 0.93,13.17 0.91,19.46 -0.16,5.89 -1.18,10.71 -4.54,13.16 -10.34,6.52 -21.48,10.62 -33.55,11.87 -2.24,0.29 -4.65,-0.72 -6.93,-1.32 -1.44,-0.43 -2.61,-0.04 -2.42,2.14 0.06,1.77 0.99,4.61 1.73,5.27 2.2,1.97 4.88,3.79 7.29,4.8 3.24,1.18 6.3,0.18 8.85,-1.55 9.27,-6.62 19.04,-12.52 30.14,-14.35 3.42,-0.67 6.1,-2 8.76,-4.22 0.02,-0.01 0.21,-0.07 0.23,-0.07 0.24,-0.08 0.56,2.51 0.55,5.65 -0.14,2.74 -0.65,5.16 -1.89,6.91 -7.18,12.22 -15.63,22.17 -25.57,29.92 -1.61,1.42 -3.86,1.71 -5.97,2.4 -1.18,0.38 -2.22,1.17 -1.56,3.2 0.54,1.62 1.7,4.39 2.54,4.56 2.41,1.01 4.92,1.53 7.16,1.25 2.95,-0.52 5.24,-3.06 7.03,-6.34 6.47,-12 13.21,-23.18 22.08,-31.02 2.66,-2.22 4.81,-5.17 6.47,-8.85 2.32,-4.81 4.65,-9.61 6.98,-14.41 0.98,-2.57 2.59,-3.99 4.57,-5.09 8.06,-3.98 15.58,-9.59 22.48,-16.33 0.57,-0.64 1.27,-0.87 1.98,-1.1 13.65,-3.57 25,-11.77 35.56,-22.41 3.43,-3.82 5.73,-9.51 6.32,-16.44 0.2,-0.96 0.41,-1.93 0.98,-2.56 0.91,-1.2 1.95,-1.99 2.62,-3.1 1.45,-2.72 1.23,-5.79 -1.04,-9.54 -0.13,-0.41 -0.4,-1.22 -0.16,-1.3 3,-5.91 5.9,-11.35 10.3,-14.59 4.17,-3.16 10.32,-0.23 14.49,6.93 2.4,4.16 4.5,6.61 7.51,7.87 2.04,0.68 4.12,2.25 6.09,4.3 8.25,8.52 17.24,14.56 26,20.67 14.34,9.67 28.92,19.27 43.13,28.54 1.34,0.91 2.54,1.41 3.75,1.91 1.7,1.24 2.75,0.45 3.15,-1.48 0.65,-2 0.22,-4.11 -0.68,-6.06 -0.77,-1.55 -1.63,-2.61 -2.74,-3.59 -14.39,-14.6 -28.78,-29.19 -42.94,-43.87 -3.45,-3.36 -6.65,-6.8 -9.99,-10.65 -1.23,-1.39 -2,-2.93 -3,-4.4 -0.37,-0.33 -0.63,-1.14 -0.4,-1.22 0.24,-0.08 0.34,-0.56 0.71,-0.23 0.23,-0.08 0.83,0.17 1.07,0.1 17.61,4.56 35.08,11.87 53.05,19.9 5.78,2.6 11.81,5.12 17.46,7.31 0.61,0.25 1.68,0.35 1.55,-0.06 -0.17,-1.29 0.01,-3.14 -0.36,-3.47 -1.87,-2.53 -3.61,-4.66 -5.44,-6.3 -5.99,-4.78 -11.97,-9.56 -18.19,-14.26 -21.22,-16.4 -42.44,-32.8 -63.9,-49.12 -1.47,-1.32 -2.34,-2.38 -3.14,-4.81 -2.65,-8.11 -5.73,-11.15 -10.72,-11.31 -1.91,-0.27 -3.48,-1.11 -5.32,-2.75 -5.04,-5.09 -10.32,-10.1 -15.73,-15.51 -0.37,-0.33 -0.63,-1.14 -0.53,-1.62 1.37,-8.53 2.63,-16.58 3.77,-25.03 1.37,-8.53 2.73,-17.06 4.1,-25.59 0.18,-1.85 0.25,-3.22 -0.65,-5.17 -1.03,-2.36 -0.72,-3.8 0.82,-3.86 1.3,0.02 2.61,0.04 4.28,0.39 0.24,-0.07 0.47,-0.15 0.21,-0.96 -1.17,-2.76 -2.2,-5.12 -3.36,-7.88 -0.13,-0.41 -0.03,-0.89 0.34,-0.56 0.83,0.17 1.8,0.76 2.88,0.85 0.36,0.33 0.47,-0.15 0.1,-0.48 -1.13,-1.87 -2.14,-3.34 -3,-4.4 -1.37,-1.8 -1.53,-3.1 -1.36,-4.95 4.69,-29.37 12.35,-55.22 24.31,-76.65 10.39,-19.11 23.44,-33.25 38.38,-43.98 2.55,-1.73 4.84,-4.28 6.89,-6.75 0.58,-0.63 1.01,-1.67 1.45,-2.72 0.11,-0.48 -0.03,-0.88 -0.26,-0.81 -1.97,-2.04 -3.38,-1.58 -4.89,-0.64 -20.63,14.83 -38.22,34.95 -53.15,60.04 z"
       id="b1dt6wvBOt" />
  </defs>
  <g
     id="g20"
     transform="matrix(0.74286679,0,0,0.74286679,1.8591931,1.0160393)">
    <g
       id="g18">
      <g
         id="g8"
         style="fill:#7171a3;fill-opacity:1">
        <use
           xlink:href="#a1DbOXU8Ob"
           id="use6"
           style="fill:#7171a3;fill-opacity:1"
           fill-opacity="1"
           fill="#a4a4a4"
           opacity="1" />
      </g>
      <g
         id="g864"
         transform="matrix(0.38619685,0,0,0.45329233,580.00047,728.83841)"
         inkscape:transform-center-x="268.08362"
         inkscape:transform-center-y="-71.276312"
         style="fill:#ffffff;fill-opacity:1">
        <path
           style="fill:#ffffff;fill-opacity:1;stroke-width:1.94904"
           d="m -747.94564,-479.40727 c -1.6295,-1.89645 -3.54351,-5.39771 -4.25337,-7.78058 -2.12095,-7.11968 -7.41336,-7.04591 -23.8335,0.33228 -8.51395,3.82565 -17.59076,6.95571 -20.17067,6.95571 -5.53128,0 -10.05178,-4.73602 -11.83478,-12.39899 -0.70421,-3.02653 -2.52581,-5.99121 -4.048,-6.58818 -1.52219,-0.59695 -9.52444,1.21432 -17.78281,4.02505 -18.08781,6.1562 -20.14461,6.2484 -24.69741,1.10701 -3.4483,-3.894 -3.4301,-4.24539 0.6652,-12.8599 6.1944,-13.03031 5.7109,-15.2839 -3.0196,-14.07451 -3.9765,0.55083 -12.1265,2.53699 -18.1112,4.4137 -14.0374,4.40189 -20.9301,2.88688 -20.9301,-4.60043 0,-7.19832 3.7588,-12.33842 15.4204,-21.08698 10.0613,-7.54797 10.8674,-10.83931 2.6547,-10.83931 -20.0164,0 -15.0558,-17.72069 9.8951,-35.34831 7.9447,-5.61292 14.445,-10.7161 14.445,-11.34038 0,-0.62428 -3.7836,-0.60507 -8.408,0.0427 -5.7242,0.80183 -9.5704,0.30286 -12.0498,-1.56322 -3.569,-2.68625 -3.5683,-2.8816 0.038,-9.78122 2.024,-3.87213 6.3619,-9.10694 9.6398,-11.63292 10.8955,-8.39618 74.86848,-47.6625 111.03396,-68.15213 34.92648,-19.78768 44.42482,-26.33604 41.91726,-28.8987 -0.68627,-0.70135 -11.90767,-2.03217 -24.93645,-2.95738 -13.02875,-0.92522 -26.30042,-2.26733 -29.49258,-2.98252 -7.79372,-1.74612 -62.26907,-24.08405 -68.40746,-28.05087 -13.44923,-8.6913 -74.22943,-61.04969 -83.31693,-71.77237 -41.4804,-48.94421 -91.33812,-114.54707 -93.38302,-122.87363 -0.728,-2.96453 0.1791,-8.05159 2.2882,-12.83141 3.0349,-6.87822 3.1613,-8.74053 0.9612,-14.16296 -4.1362,-10.1941 -4.5561,-18.32281 -1.4112,-27.31898 1.8206,-5.2079 3.4097,-19.1223 4.1189,-36.0642 1.098,-26.2347 1.3873,-27.7813 5.91042,-31.5995 3.7767,-3.1881 4.7464,-5.825 4.7099,-12.8072 -0.025,-4.8358 -0.7612,-11.9348 -1.6354,-15.7755 -0.8742,-3.8407 -0.8814,-8.9389 -0.016,-11.3295 1.3074,-3.6118 3.0603,-4.3464 10.3718,-4.3464 11.204,0 12.1224,-2.3917 6.9402,-18.0742 -9.8096,-29.6862 -3.3353,-26.7029 36.0163,16.5964 49.957,54.9685 45.9332,51.6944 102.21872,83.1743 26.50421,14.8235 28.92126,15.7496 62.6589,24.007 36.99514,9.05475 98.81401,18.12873 101.91511,14.95948 1.07069,-1.09423 -0.96478,-7.56058 -5.16527,-16.40918 l -6.9323,-14.6034 1.26562,-20.8765 c 1.12765,-18.601 0.84138,-21.7264 -2.62626,-28.6729 -5.66284,-11.344 -20.23591,-27.1309 -30.74154,-33.3019 -17.37213,-10.2044 -21.48433,-17.7637 -15.6863,-28.8355 1.63881,-3.1295 1.36107,-5.7596 -1.2278,-11.6269 -3.1989,-7.2498 -3.19028,-7.8232 0.1965,-13.0666 1.94821,-3.0163 5.5189,-9.4535 7.93485,-14.3049 l 4.39266,-8.8209 -4.93162,-7.2727 c -5.6913,-8.393 -4.28693,-14.1484 3.96908,-16.2661 6.45319,-1.6552 7.89485,-8.4337 4.88078,-22.9488 -3.04125,-14.6459 -1.19821,-17.6398 10.85923,-17.6398 10.22923,0 10.69276,-2.2688 2.89824,-14.1862 -7.17527,-10.9705 -8.87308,-16.7891 -5.94945,-20.3893 3.39601,-4.1818 11.07508,-3.4789 22.76826,2.0842 5.67228,2.6986 11.09469,4.9066 12.04978,4.9066 4.32821,0 0.9438,-9.487 -7.646,-21.4327 -20.39463,-28.3627 -18.91115,-33.209 6.77069,-22.1189 7.2686,3.1387 20.15633,7.6497 28.63938,10.0243 33.49536,9.3762 64.4537,30.7824 105.07416,72.6537 l 31.81144,32.791 8.49036,20.6885 c 4.66971,11.3787 18.91474,40.9663 31.65562,65.7503 25.59638,49.7907 25.78734,50.7214 10.76652,52.47 -10.79212,1.2564 -11.43772,4.362 -3.78691,18.2164 9.87836,17.8882 6.46175,29.0718 -8.88147,29.0718 -8.31937,0 -9.24005,2.336 -4.5912,11.6488 6.88978,13.80183 7.95679,13.81399 39.6098,0.4513 10.60381,-4.4765 37.93273,-15.4932 60.73093,-24.4815 37.2534,-14.6873 45.76213,-18.9677 84.01815,-42.2662 23.41178,-14.2582 56.15973,-36.1437 72.77326,-48.6345 16.61352,-12.4908 32.76941,-24.065 35.90201,-25.7206 12.13815,-6.4148 15.99104,-2.0983 10.71924,12.009 -3.70803,9.9228 -2.80062,11.9519 5.77168,12.9067 7.79319,0.868 8.49799,7.0977 2.07104,18.3055 -6.32479,11.0296 -6.22382,13.1167 0.83309,17.2206 3.17446,1.846 5.77172,4.9108 5.77172,6.8106 0,1.8997 -3.47034,8.5101 -7.71187,14.6897 -8.88349,12.9426 -9.18435,14.6645 -3.62014,20.7175 5.27812,5.7418 4.0869,10.5368 -6.06286,24.4049 -5.71591,7.8099 -7.6074,12.0335 -6.82423,15.238 3.57632,14.63295 4.27537,12.50955 -11.42213,34.69604 -4.14716,5.86148 -6.77403,11.85858 -6.77403,15.46493 0,15.0834 -12.08706,28.51351 -74.91978,83.2444 -65.85092,57.35989 -131.28876,108.41029 -169.88186,132.53092 l -33.78948,21.11835 -51.09111,51.39836 c -67.06426,67.46757 -142.22269,139.57811 -168.69704,161.85591 -34.50718,29.03729 -39.68237,31.84144 -45.74433,24.78637 z"
           id="path878"
           inkscape:connector-curvature="0" />
      </g>
    </g>
  </g>
</svg>
